<svg xmlns="http://www.w3.org/2000/svg" xml:space="preserve" style="clip-rule:evenodd;fill-rule:evenodd" viewBox="0 0 1600 1120">
  <g style="display:inline">
    <path d="M513.9543 928.89s-16.1757 3.6526-26.0899 33.3951c-9.9141 29.7424 7.3052 75.6604 52.7015 109.5772 45.3963 33.9168 137.8416 51.3469 180.0198 29.2206 30.6682-16.0882 12.5231-49.5706 12.5231-49.5706zM512.8626 606.58s-42.6517-148.4292-142.4208-194.814c-115.811-53.843-226.6372-22.9214-261.2279 95.1931-30.2552 103.3105 16.2345 240.5658 103.3104 317.3107 95.9763 84.5893 216.214 108.476 292.959 90.0277 76.7449-18.4483 7.3793-307.7176 7.3793-307.7176z" style="clip-rule:evenodd;fill:#6f4028;fill-opacity:1;fill-rule:evenodd;stroke:none;stroke-width:16;stroke-linecap:round;stroke-linejoin:round;stroke-miterlimit:45.6;stroke-dasharray:none;stroke-opacity:1"/>
    <path d="M590.3454 275.2486s-24.3517-23.6139-62.7242-15.4966c-38.3724 8.1172-86.338 40.5862-76.7449 108.476 9.5931 67.8897 86.338 74.531 86.338 74.531s-5.1655 113.6416-25.0896 173.414c-19.9242 59.7725-60.5105 203.6692-2.9518 298.8624 80.1432 132.5445 219.1658 141.6829 266.3934 138.7312 47.2276-2.9517 144.6346-30.2552 181.5312-27.3035 36.8966 2.9517 147.9554 15.8656 198.1348-3.3207 50.1793-19.1862 155.3346-272.6658 155.3346-272.6658s112.9035-24.3517 127.6622-41.3242c14.7586-16.9724 45.0138-45.0138.7379-115.8552-44.2759-70.8415-213.2623-123.2347-213.2623-123.2347s-9.5931-127.6622-24.3517-175.6277c-14.7587-47.9656-34.6828-76.007-34.6828-76.007s33.9448-29.5173 30.9931-63.4621c-2.9517-33.9449-24.3517-42.8-56.0828-50.9173-31.7311-8.1173-76.007 24.3517-76.007 24.3517s-31.731-24.3517-56.8207-33.2069c-25.0897-8.8552-55.345-8.1172-55.345-8.1172s11.9915-13.0983-8.3017-31.9156c-20.293-18.8173-43.8784-6.2539-43.8784-6.2539s-1.6581-34.543-51.4685-31.9603c-49.8104 2.5828-72.8807 34.6982-56.6408 75.4874-45.332 18.0912-60.0096 2.1037-124.1906 57.936-64.181 55.8322-78.5824 124.879-78.5824 124.879z" style="clip-rule:evenodd;display:inline;fill:#ad6742;fill-opacity:1;fill-rule:evenodd;stroke:none;stroke-width:16;stroke-linecap:round;stroke-linejoin:round;stroke-miterlimit:45.6;stroke-dasharray:none;stroke-opacity:1"/>
    <path d="M728.5232 556.7695s-36.7122 8.4863-38.926 43.907c-2.2137 35.4207 71.479 351.2555 71.479 351.2555s4.9965 22.7728 39.0734 33.1174c30.2027 9.1686 45.4013.44 45.4013.44z" style="clip-rule:evenodd;display:inline;fill:#6f4028;fill-opacity:1;fill-rule:evenodd;stroke:none;stroke-width:10;stroke-linecap:round;stroke-linejoin:round;stroke-miterlimit:45.6;stroke-dasharray:none;stroke-opacity:1"/>
    <path d="m951.414 381.232-37.0256 35.808 18.6328 38.4257 54.9654-13.3231 7.6625-44.842z" style="clip-rule:evenodd;fill:#faf3f0;fill-opacity:1;fill-rule:evenodd;stroke:none;stroke-width:25;stroke-linecap:round;stroke-linejoin:round;stroke-miterlimit:45.6;stroke-dasharray:none"/>
    <path d="M321.2583 371.2307c.469.28 1.7684.5583 4.3902-1.6605 1.9233-1.6276 5.239-4.9928 10.4554-9.3295 3.7814-3.1437 8.365-6.5525 13.6848-9.4922 5.3628-2.9636 10.932-5.1531 16.8129-6.4483a57.612 57.612 0 0 1 .435-.0941c7.0905-1.496 14.1136-1.9411 21.138-1.5322 6.8668.3997 13.1038 1.5822 18.3058 2.8833 6.2937 1.5742 11.8239 3.5433 13.9062 4.3026 3.91 1.4258 4.6539 1.3678 4.8776 1.0484.145-.2068.1382-1.2425-3.2537-3.93-2.0898-1.6557-6.4552-4.888-13.1154-8.0625-5.1874-2.4725-11.8182-4.9244-19.4938-6.2973-7.8464-1.4035-16.2258-1.5748-24.6847.058a49.9873 49.9873 0 0 0-.543.1074c-7.3435 1.4929-14.1285 4.488-20.1626 8.4284-5.9718 3.8998-10.7581 8.4285-14.3225 12.5137-4.958 5.6826-7.4092 10.1792-8.4502 12.6704-1.3399 3.2066-.3688 4.6023.02 4.8344z" style="clip-rule:evenodd;fill:#6f4028;fill-rule:nonzero;stroke:none;stroke-width:10.5376;stroke-linecap:round;stroke-linejoin:round;stroke-miterlimit:45.6;stroke-dasharray:none;stroke-opacity:1" transform="matrix(1.135 -.0925 .0925 1.135 292.102 -159.9725)"/>
    <path d="M614.1546 345.9511c.1177.0883.3629.0651 1.2553-.5545.8692-.6035 2.3612-1.7874 4.2947-3.1697 1.6032-1.1463 3.9567-2.6099 6.829-4.1038 3.5746-1.8592 7.9567-3.7696 12.976-5.2759 5.032-1.51 10.2851-2.494 15.986-2.9135l.1382-.0101c3.9158-.2847 7.9121-.4003 12.514-.2682 4.5258.1299 8.935.485 12.6808.9025 3.083.3436 5.769.7353 7.612 1.1085 2.1666.4388 3.8932.8333 4.8593.9887.9912.1594 1.196.0823 1.2471-.0308.048-.1062-.0231-.3311-.8414-.933-.8352-.6142-2.2589-1.4815-4.3197-2.605-1.7179-.9367-4.0735-2.2871-7.0159-3.7338-3.5153-1.7285-7.8929-3.6046-12.755-4.9594-4.788-1.3341-9.877-2.1106-14.7677-1.7826-.0595.004-.1191.008-.1788.0125-7.0229.5109-13.3886 2.5929-18.8286 5.4697-5.4367 2.875-9.6364 6.3674-12.7144 9.4452-2.4995 2.4994-4.3251 4.7901-5.6053 6.4213-1.5896 2.0255-2.5823 3.619-3.067 4.629-.4838 1.008-.4018 1.2856-.2986 1.363z" style="clip-rule:evenodd;fill:#6f4028;fill-rule:nonzero;stroke:none;stroke-width:10.5376;stroke-linecap:round;stroke-linejoin:round;stroke-miterlimit:45.6;stroke-dasharray:none;stroke-opacity:1" transform="rotate(-8.5127 -516.9891 -1761.0606) scale(1.1388)"/>
    <path d="M436.4888 543.3746c.8137-.1717 2.975-.2445 4.8821-1.0302 1.1323-.4664 2.4889-1.2457 3.962-2.2033 2.625 2.6882 7.2653 6.8382 13.5426 10.8464 4.9853 3.1832 10.6464 6.0596 16.8884 8.2387a74.9493 74.9493 0 0 0 2.0622.6866c6.9578 2.2048 15.4952 3.7859 25.3019 3.3154 9.2444-.4428 18.3322-2.4894 26.512-6.0086 8.5043-3.6588 15.6938-8.7626 21.0723-14.904 6.4224-7.3333 9.6685-15.4333 10.6392-23.2836.9952-8.0482-.5016-14.9487-1.7925-19.2571-1.3868-4.6283-3.1828-8.2296-3.7979-9.469l-9.3065-3.1332-3.1331 9.3065c.505 1.0177 1.8655 3.8635 2.955 7.349 1.0296 3.294 2.1304 8.1512 1.579 13.6645-.5255 5.2548-2.537 10.915-7.0436 16.351-3.833 4.6238-9.2806 8.8255-16.2156 12.0317-6.6669 3.0824-14.2742 5.0367-22.1786 5.6337-8.2052.6208-15.4356-.4647-21.4543-2.1262a67.1249 67.1249 0 0 1-1.7884-.5206c-5.435-1.664-10.4511-3.9703-14.9692-6.5955-9.031-5.2471-14.7843-11.2396-14.7952-10.837l-6.2614-.2938c-2.288 2.755-4.345 5.4306-5.3223 7.4318-.9051 1.8533-1.115 4.0057-1.338 4.8068z" style="clip-rule:evenodd;fill:#6f4028;fill-rule:nonzero;stroke:none;stroke-width:10.5376;stroke-linecap:round;stroke-linejoin:round;stroke-miterlimit:45.6;stroke-dasharray:none;stroke-opacity:1" transform="rotate(-4.6702 -1936.4469 -3480.3647) scale(1.1388)"/>
    <path d="M548.93 527.5363c-.764.6452-3.3399 3.4616-2.164 6.3904.1922.4789.479.9948.8716 1.5502 1.4975 2.1193 4.6054 4.9554 9.5385 7.721 4.2114 2.361 9.6239 4.5395 15.9465 5.618 6.633 1.1316 13.5175.9312 20.5763-.7254 5.5057-1.243 10.3866-2.8861 14.6275-4.9234 4.073-1.9566 7.4568-4.2298 10.2053-6.7514 2.7388-2.5129 4.758-5.1915 6.1974-7.8931 1.4813-2.7805 2.308-5.5083 2.7177-8.0014.9405-5.7236-.2634-10.3679-1.1627-12.6997a17.0196 17.0196 0 0 0-.2772-.676c-1.6518-3.7894-3.3927-3.7656-3.7043-3.6309-.5755.2489-1.1277 1.1402-1.2678 4.6627l-.0243.6155c-.0858 2.1374-.2314 5.9078-1.6522 9.726-.6193 1.6642-1.4886 3.3763-2.7305 5.0596-1.2004 1.6271-2.772 3.2589-4.8592 4.8175-2.1032 1.5706-4.7417 3.0754-8.0643 4.4221-3.4732 1.4077-7.597 2.6032-12.4595 3.5261-5.4975.9677-10.6393.6043-15.3693-.6462-4.547-1.2022-8.3851-3.1332-11.5064-4.9938-3.6537-2.1779-6.1673-4.1057-7.9861-4.9649-.4777-.2256-.9094-.384-1.3155-.4776-2.4672-.5683-5.349 1.609-6.1375 2.2747z" style="clip-rule:evenodd;fill:#6f4028;fill-rule:nonzero;stroke:none;stroke-width:10.5376;stroke-linecap:round;stroke-linejoin:round;stroke-miterlimit:45.6;stroke-dasharray:none;stroke-opacity:1" transform="rotate(-4.6702 -1936.4469 -3480.3647) scale(1.1388)"/>
    <path d="M512.6862 559.8607c.002.0261-.0878.3833.3002 2.9307.0614.403.1423.8872.2432 1.4498.3302 1.8417 1.0883 5.6968 2.1735 9.8568.884 3.3888 2.1276 7.5386 3.765 11.2212.768 1.7275 1.659 3.4357 2.6923 4.9537.5105.7499 1.0696 1.474 1.6826 2.1402.6088.6618 1.2887 1.286 2.0464 1.823.8786.633 1.8487 1.0783 2.7898 1.4048.9522.3304 1.9711.5721 3.0048.752 2.0815.3622 4.4547.5127 6.8956.5317 2.5375.0197 5.249-.1022 7.9587-.3137 2.8652-.2236 5.7511-.5488 8.503-.9234l.197-.0269c5.299-.7275 10.9802-1.7599 15.8438-3.0389 2.2977-.6043 4.4697-1.2793 6.2933-2.0162.903-.365 1.776-.7671 2.562-1.2123.7654-.4335 1.575-.9782 2.2653-1.6718.6278-.6238 1.1625-1.337 1.6165-2.0413.4636-.7192.892-1.5057 1.2889-2.322.8051-1.6563 1.5459-3.5723 2.221-5.5628 1.4416-4.2508 2.7029-9.2043 3.6637-13.3327 1.4704-6.3171 2.5667-12.0975 2.8622-13.8566.5264-3.1344.465-3.554.4667-3.5675l-5.2395-6.6744-6.6744 5.2395c.002-.0135-.1195.3252-.4414 3.3706-.1838 1.7398-.6722 7.3562-1.4985 13.5551-.5459 4.0952-1.2828 8.7782-2.1598 12.7044-.4137 1.852-.8384 3.45-1.2658 4.742-.2095.6333-.3994 1.132-.5705 1.5358-.1644.3882-.3007.6405-.3095.7186.0829-.004-.1078.2277-.4342.482-.3485.2714-.8508.5847-1.4983.9202-1.3183.683-3.085 1.3806-5.1597 2.044-4.3689 1.397-9.7028 2.5221-14.7612 3.2173l-.187.0255c-2.6151.3544-5.3467.621-8.0344.7583-2.5492.1303-5.0284.1426-7.2754.008-2.1908-.131-4.0795-.397-5.5358-.7891-.714-.1922-1.2786-.403-1.6913-.6131-.4102-.209-.6226-.3964-.6435-.4774-.157-.183-.3502-.4318-.5736-.7797-.224-.3488-.4602-.7692-.7043-1.2733-.5019-1.0363-.9775-2.3026-1.4176-3.7652-.947-3.1475-1.6041-6.7782-2.0467-10.0037-.544-3.9646-.7771-7.3992-.8989-9.2157-.0356-.5316-.0642-.9672-.0923-1.3458-.1742-2.3494-.265-2.5777-.2628-2.5516l-6.4743-5.4848z" style="clip-rule:evenodd;fill:#6f4028;fill-rule:nonzero;stroke:none;stroke-width:10.5376;stroke-linecap:round;stroke-linejoin:round;stroke-miterlimit:45.6;stroke-dasharray:none;stroke-opacity:1" transform="rotate(-4.6702 -1935.6103 -3459.7105) scale(1.1388)"/>
    <path d="M547.917 535.3702c-.1076 2.4635-.875 9.6588-.6454 14.7811.2505 5.5911.5324 14.7257 2.3408 17.4711.8147 1.2368 2.5583 1.5302 3.07 1.8362.5363-.2603 2.299-.4006 3.2183-1.5616 2.0408-2.5774 3.1178-11.6527 3.8546-17.2006.6751-5.0828.5379-12.3176.6454-14.7812l-5.9694-6.5144z" style="clip-rule:evenodd;fill:#6f4028;fill-rule:nonzero;stroke:none;stroke-width:10.5376;stroke-linecap:round;stroke-linejoin:round;stroke-miterlimit:45.6;stroke-dasharray:none;stroke-opacity:1" transform="matrix(1.135 -.0925 .0925 1.135 275.2633 -163.58)"/>
    <path d="M346.882 488.6653c-.0681.0307-.164.1903.026.9696.0856.351.2076.8917.4577 1.6278.4888 1.438 1.4545 3.5458 3.1637 5.6407.6033.7394 1.2683 1.4365 1.98 2.0558 1.3328 1.1598 3.094 2.287 5.125 3.1763 3.409 1.4926 6.4824 1.8515 8.4114 1.943.8972.0426 1.561-.0395 1.8487-.058-.299-.09-.878-.3093-1.7266-.5957-1.8929-.6389-4.373-1.7278-7.1268-3.7581-1.6336-1.2045-2.9007-2.3852-4.0777-3.462-.6985-.6391-1.1707-1.0636-1.8692-1.7026-1.8843-1.7272-3.1696-2.9919-4.3119-4.1159-.4926-.4848-.9393-.9235-1.145-1.1423-.5325-.5663-.6714-.6164-.7553-.5787z" style="clip-rule:evenodd;fill:#6f4028;fill-rule:nonzero;stroke:none;stroke-width:2.63439;stroke-linecap:round;stroke-linejoin:round;stroke-miterlimit:45.6;stroke-dasharray:none;stroke-opacity:1" transform="rotate(127.6279 640.5753 518.8676) scale(1.1388)"/>
    <path d="M345.0842 498.584c-.1018.029-.3291.3563.005 1.546l.0154.054c.2373.8182.6649 2.1215 1.7347 3.5745.593.8054 1.3396 1.591 2.2277 2.265.7474.5672 1.6482 1.1201 2.6794 1.62 2.0082.9734 4.17 1.573 5.8122 1.8044 1.2158.1713 2.2673.0254 2.7485.0153-.4177-.2252-1.2764-.8513-2.3052-1.3976-1.623-.8618-3.0336-1.5783-4.875-2.8319-.855-.5819-1.5578-1.1173-2.2028-1.6222-.8376-.6557-1.3868-1.072-2.1353-1.6778-1.1811-.9558-2.0702-1.7658-2.5798-2.341a92.5655 92.5655 0 0 0-.0335-.0379c-.6282-.7098-.9923-.9988-1.091-.9707z" style="clip-rule:evenodd;fill:#6f4028;fill-rule:nonzero;stroke:none;stroke-width:2.63439;stroke-linecap:round;stroke-linejoin:round;stroke-miterlimit:45.6;stroke-dasharray:none;stroke-opacity:1" transform="rotate(127.6279 638.616 528.4426) scale(1.1388)"/>
    <path d="M911.5607 236.8489c-41.5834 11.2876-70.387 41.0796-75.0043 68.96-2.7357 16.5188 35.3024 38.8176 69.7986 41.7159 33.1088 2.7817 69.3006-6.0781 93.431-35.8683 24.1307-29.7902 14.6669-55.9525 7.1833-66.0958-12.322-16.7014-61.871-17.8154-95.4086-8.7118z" style="clip-rule:evenodd;fill:#6f4028;fill-opacity:1;fill-rule:evenodd;stroke:none;stroke-width:12;stroke-linecap:round;stroke-linejoin:round;stroke-miterlimit:45.6;stroke-dasharray:none;stroke-opacity:1"/>
    <path d="M1133.0612 322.1331c-.027-.002-.014.2256-.29 1.0898-.3738 1.1696-1.8455 4.321-3.6502 7.9356-.4571.9154-.9254 1.8378-1.3643 2.7277-.818 1.6582-1.6669 3.419-2.8531 5.343-1.8947 3.0734-3.8491 5.1987-5.4785 6.6252-.8383.734-1.5309 1.3237-1.8341 1.5576.3658-.1428 1.209-.4384 2.2309-.9797 1.8932-1.0028 4.6124-2.6626 7.2756-5.5126 1.6497-1.7654 2.9659-3.6646 3.8575-5.4417.4951-.9867.9045-2.0413 1.2293-3.114 1.3562-4.4787.9373-7.9159.9066-9.0958-.026-.9938-.0003-1.133-.03-1.135zM1139.2543 331.7987c-.067.008-.1084.0936-.2502.683-.046.1892-.1296.4788-.244.8348-.2767.861-.7443 2.165-1.5175 3.7807-.4802 1.0036-.9614 1.8926-1.5266 2.9074-.4507.8091-.9448 1.679-1.5734 2.651-1.5901 2.4593-3.3226 4.42-4.804 5.8523-.6334.6126-1.1774 1.1446-1.3981 1.346.2795-.158.9141-.4926 1.6794-.9936 1.6566-1.0846 4.0134-2.7476 6.0722-5.002.8284-.9072 1.5147-1.8102 2.0419-2.6728.6442-1.054 1.1429-2.2017 1.4787-3.3426.5683-1.931.5724-3.4772.4729-4.437-.042-.4042-.1016-.7086-.1413-.915-.1202-.6253-.2482-.697-.29-.6922z" style="clip-rule:evenodd;fill:#6f4028;fill-rule:nonzero;stroke:none;stroke-width:3;stroke-linecap:round;stroke-linejoin:round;stroke-miterlimit:45.6;stroke-dasharray:none;stroke-opacity:1" transform="translate(4.8552 -53.131)"/>
    <path d="M1068.0236 179.4613c15.6962-4.4543 40.0266 5.1816 52.284 32.4263 10.5613 23.475 12.0905 52.5293 1.3172 67.2713-10.5687 14.462-43.7481 29.0776-64.642 10.0272-20.8939-19.0502-21.9588-51.4118-20.0147-71.6992 1.9444-20.2876 19.2134-35.9992 31.0554-38.0257z" style="clip-rule:evenodd;fill:#6f4028;fill-opacity:1;fill-rule:evenodd;stroke:none;stroke-width:12;stroke-linecap:round;stroke-linejoin:round;stroke-miterlimit:45.6;stroke-dasharray:none;stroke-opacity:1"/>
    <path d="M546.9426 318.7752s.2745-.003 0 0c-3.631.0396-14.6247-.6666-21.7866.2375-7.1694.905-17.6723 4.3292-21.2068 5.195-.2667.0653 0 0 0 0a3.3033 3.3033 90 0 0 .7673 6.562s-.2745-.002 0 0c3.639.027 14.6485.9354 21.8333.1618 7.1773-.7728 17.7113-3.9965 21.2536-4.7958.2678-.0604 0 0 0 0a3.7053 3.7053 90 0 0-.8608-7.3605z" style="clip-rule:evenodd;display:inline;fill:#e3766f;fill-opacity:1;fill-rule:nonzero;stroke:none;stroke-width:11.9826;stroke-linecap:round;stroke-linejoin:round;stroke-miterlimit:45.6;stroke-opacity:1" transform="matrix(.6678 -.7463 .7463 .6678 113.2217 573.774)"/>
    <path d="M546.7831 318.7974s.2738-.0144 0 0c-3.5696.1883-14.4144-.0668-21.4174 1.1294-7.0107 1.1975-17.1857 5.0475-20.6229 6.057-.263.0774 0 0 0 0a3.3033 3.3033 90 0 0 1.0518 6.5224s-.274.009 0 0c3.5802-.122 14.4497.3345 21.4815-.7324 7.024-1.0658 17.239-4.7169 20.6868-5.6602.2644-.0723 0 0 0 0a3.7053 3.7053 90 0 0-1.1798-7.3162z" style="clip-rule:evenodd;display:inline;fill:#e3766f;fill-opacity:1;fill-rule:nonzero;stroke:none;stroke-width:11.9826;stroke-linecap:round;stroke-linejoin:round;stroke-miterlimit:45.6;stroke-opacity:1" transform="matrix(.6678 -.7463 .7463 .6678 145.1045 572.2875)"/>
    <path d="M546.5994 318.8318s.2726-.028 0 0c-3.5346.3635-14.3157.6422-21.2077 2.181-6.8995 1.5405-16.8047 5.8853-20.1657 7.0624-.2586.0906 0 0 0 0a3.3033 3.3033 90 0 0 1.3793 6.461s-.273.023 0 0c3.5486-.298 14.3645-.3766 21.2917-1.7878 6.9195-1.4096 16.8746-5.5577 20.2496-6.6692.2602-.0857 0 0 0 0a3.7053 3.7053 90 0 0-1.5472-7.2474z" style="clip-rule:evenodd;display:inline;fill:#e3766f;fill-opacity:1;fill-rule:nonzero;stroke:none;stroke-width:11.9826;stroke-linecap:round;stroke-linejoin:round;stroke-miterlimit:45.6;stroke-opacity:1" transform="matrix(.6678 -.7463 .7463 .6678 176.1004 569.761)"/>
    <path d="M546.9304 318.7767s.2755-.005 0 0c-3.7791.0695-15.2195-.5468-22.675.4167-7.4626.9645-18.3989 4.477-22.0787 5.3724-.2677.0651 0 0 0 0a3.3033 3.3033 90 0 0 .7892 6.5593s-.2756.0003 0 0c3.7871-.003 15.2444.8154 22.723-.0176 7.4711-.8322 18.4389-4.1443 22.1267-4.9732.2688-.0604 0 0 0 0a3.7053 3.7053 90 0 0-.8852-7.3576z" style="clip-rule:evenodd;display:inline;fill:#e3766f;fill-opacity:1;fill-rule:nonzero;stroke:none;stroke-width:13.2797;stroke-linecap:round;stroke-linejoin:round;stroke-miterlimit:45.6;stroke-opacity:1" transform="matrix(.5495 -.7173 .7173 .5495 574.347 543.7607)"/>
    <path d="M546.7825 318.7975s.2752-.0164 0 0c-3.8022.2264-15.345.0857-22.8134 1.3584-7.4756 1.274-18.3483 5.2384-22.018 6.286-.265.0757 0 0 0 0a3.3033 3.3033 90 0 0 1.053 6.5222s-.2755.0116 0 0c3.8129-.1602 15.3807.1816 22.8774-.9615 7.4895-1.142 18.4017-4.9076 22.082-5.8891.2664-.071 0 0 0 0a3.7053 3.7053 90 0 0-1.181-7.316z" style="clip-rule:evenodd;display:inline;fill:#e3766f;fill-opacity:1;fill-rule:nonzero;stroke:none;stroke-width:13.2797;stroke-linecap:round;stroke-linejoin:round;stroke-miterlimit:45.6;stroke-opacity:1" transform="matrix(.5495 -.7173 .7173 .5495 603.2255 538.2354)"/>
    <path d="M546.6836 318.8149s.274-.0231 0 0c-3.7002.3114-14.9593.43-22.2015 1.8686-7.2495 1.4402-17.7273 5.6441-21.2728 6.773-.2621.0834 0 0 0 0a3.3033 3.3033 90 0 0 1.2292 6.4912s-.2745.0182 0 0c3.7128-.2456 15.0022-.1636 22.2763-1.4737 7.2668-1.3087 17.7897-5.3149 21.3476-6.3779.2635-.0787 0 0 0 0a3.7053 3.7053 90 0 0-1.3788-7.2812z" style="clip-rule:evenodd;display:inline;fill:#e3766f;fill-opacity:1;fill-rule:nonzero;stroke:none;stroke-width:13.2797;stroke-linecap:round;stroke-linejoin:round;stroke-miterlimit:45.6;stroke-opacity:1" transform="matrix(.5495 -.7173 .7173 .5495 633.2642 531.5128)"/>
    <path d="M557.5893 484.4623s.008.0105 0 0c-.2028-.2821-1.907.5774-7.798 2.579-4.0119 1.363-10.5677 3.2551-18.595 3.437-7.1883.1629-15.925-1.0206-25.6874-5.5194-9.449-4.3544-20.041-11.9138-31.2496-24.5796-2.362-2.6696-4.5188-5.3416-6.4849-8.0069-6.8646-9.306-11.948-19.289-14.9052-29.8267-3.3069-11.7839-3.8439-23.9051-1.571-35.7742 2.0918-10.9233 6.522-21.3408 12.8708-30.3906 6.0764-8.6613 13.7393-15.8113 22.1954-20.6562 8.7857-5.0317 17.9741-8.7087 27.0157-11.1343 9.1446-2.4533 17.9711-3.5823 25.9174-3.6177 8.288-.037 15.3846 1.1121 20.96 3.009 2.9213.994 5.3681 2.1724 7.3657 3.4527 2.0948 1.3425 3.669 2.7789 4.8187 4.2264a6.8257 6.6378 39.5376 0 0 11.2978-.9215c1.004-1.9821 2.0589-4.2963 3.138-6.741 1.0993-2.4902 2.371-5.4543 3.6284-8.3567 2.8481-6.5745 5.8849-13.4364 9.5858-20.9788 3.8828-7.9128 8.0716-15.694 12.725-23.4091 6.1341-10.1701 12.8293-19.866 20.1911-29.0834 16.783-21.0129 36.4896-38.8482 59.2252-53.3114 22.9716-14.6133 51.6747-27.4646 87.8119-35.5657a332.2652 332.2652 0 0 1 8.259-1.741 4.7995 4.794 73.5688 0 0 3.5233-6.4793c-3.4445-8.6687-4.4918-16.8619-4.0974-24.1393.3095-5.7135 1.5976-12.3582 4.7876-18.8927a44.2065 44.2065 0 0 1 1.0304-1.9825c2.7987-5.0667 7.476-11.15 15.604-16.2463 6.6595-4.1757 15.6514-7.6887 27.607-9.2831 6.6405-.8664 12.5848-.9628 17.8545-.416 5.2371.5436 9.7537 1.7166 13.6063 3.356 3.9117 1.6647 7.1384 3.8096 9.7564 6.2706 2.7278 2.5643 4.806 5.4819 6.3179 8.5861 3.5041 7.1948 3.8607 15.0997 2.6681 21.9883-1.5883 9.174-5.7642 15.9905-7.745 18.8816-1.5387 2.2459-2.9058 3.7865-3.3084 4.256l2.9842 2.5591c.38-.443 1.8873-2.2534 3.5415-4.5559 2.2443-3.124 7.054-10.1397 9.3802-20.1501 1.7375-7.4767 2.0165-16.6746-1.6464-25.5914-1.5922-3.876-3.915-7.6378-7.1118-11.0284-3.0716-3.258-6.9021-6.1212-11.5422-8.3863-4.5632-2.2276-9.8385-3.8421-15.8267-4.7128-6.0184-.875-12.6843-.9884-19.9786-.2659-13.1728 1.2707-23.6932 4.7726-31.9313 9.5003-10.1301 5.8135-16.325 13.1887-20.0531 19.7024-.49.8561-.9367 1.696-1.3441 2.514-4.1734 8.3809-5.3517 16.7303-5.3277 23.6554.0247 7.1247 1.3338 14.7563 3.914 22.5807a361.4356 361.4356 0 0 0-3.0145.6585c-37.1395 8.2792-67.0898 21.1962-91.2792 36.0198-24.1611 14.8063-44.9863 32.9032-62.9487 54.6813-7.8658 9.5368-15.01 19.5903-21.5232 30.1424-4.9426 8.0078-9.3872 16.0508-13.514 24.2016-3.9363 7.7746-7.146 14.7697-10.1347 21.3697-1.3395 2.958-2.605 5.769-3.7313 8.1887-1.1006 2.3642-2.083 4.387-2.9598 6.0094l11.298-.9214c-2.0778-2.856-4.7403-5.3894-7.9021-7.572-3.005-2.0743-6.457-3.8294-10.2841-5.2497-7.2666-2.6967-15.9738-4.216-25.5989-4.3472-9.2635-.1263-19.3974 1.038-29.7734 3.6925-10.2757 2.6288-20.7322 6.7034-30.7505 12.3642-10.6264 6.006-19.953 14.7495-27.2 25.0955-7.5893 10.8348-12.8294 23.3074-15.2167 36.3923-2.602 14.2612-1.7415 28.7491 2.4415 42.631 3.7326 12.387 9.9479 23.7897 17.9882 34.0533 2.3029 2.9397 4.8088 5.8533 7.5265 8.7321 12.804 13.5607 25.3186 21.5952 36.8938 25.8535 11.9617 4.4005 22.4609 4.6037 30.6952 3.2666 9.1834-1.4913 15.9455-4.9458 19.8006-7.4244 5.6818-3.653 6.5868-5.6482 6.384-5.9303-.008-.0105 0 0 0 0a.4596.4596 90 0 0-.5742-.7178zM913.3761 143.107c1.4473.0453 7.1275.1732 14.1373.679 5.195.3748 15.5706 1.2671 27.967 3.4156 12.6507 2.1924 29.6945 6.052 49.3035 13.5873 31.7681 12.2077 71.4982 34.4361 116.1365 78.4165 25.4109 24.9916 43.2862 55.215 55.9109 85.9574 13.4118 32.659 20.8207 65.7246 25.0326 93.1882 3.4326 22.3823 4.91 42.1645 5.5863 56.7128 1.4074 30.275-.023 48.526.1557 48.3227l5.008 7.3c-.1083-.3184 28.5945 8.0262 62.9012 22.4548 16.1666 6.7994 33.5743 14.8793 50.9048 24.1946a511.5042 511.5042 0 0 1 7.3797 4.0445c22.1595 12.385 41.479 25.4022 57.7169 38.8476 15.9461 13.2058 29.4476 28.7554 38.6207 45.8725 5.6643 10.57 10.0455 22.4622 11.5997 34.9012.4219 3.3764.6377 6.8219.5999 10.303-.1363 12.5585-3.5964 25.6953-12.5588 37.0483-7.6716 9.718-19.7196 18.4998-37.6778 23.6138-30.2576 8.6128-41.9357 11.9254-72.1932 20.5382-14.7476 4.2012-19.8794 5.686-19.8308 5.766a1.4073 3.9854 32.6438 0 0-3.8533 3.0004c-54.7472 98.131-108.0182 193.5288-149.846 268.0422-10.3253 2.9593-19.6928 5.1825-28.1832 6.8667-12.7274 2.5247-23.9806 3.9358-33.8965 4.6858-19.9443 1.5086-36.9606.5039-51.0665-.9398-16.1434-1.6523-30.4351-4.0649-45.4487-5.9743-13.9058-1.7686-29.78-3.3108-47.2795-2.5904-17.7065.7571-35.771 3.1883-56.0736 6.9059a886.0349 886.0349 0 0 0-8.5644 1.614c-20.022 3.8704-41.365 8.7025-63.9473 12.6057-20.4179 3.5292-42.219 6.2994-64.7569 6.1535-21.3225-.138-43.7748-2.8725-67.3764-10.3028-27.143-8.5477-54.1755-18.6085-79.0167-31.848-24.4913-13.053-46.7534-29.138-65.1516-49.9058-18.423-20.7958-32.9692-46.282-42.0802-78.1591-9.309-32.5697-12.8623-71.5404-9.2752-118.3303 2.8712-37.529 7.3376-66.5721 12.1242-89.5744 5.0763-24.395 10.7366-43.0028 15.5719-57.5123 2.3523-7.0586 4.6854-13.6568 6.6932-19.397 2.475-7.076 4.832-13.9112 6.755-20.4996 1.7418-5.9685 3.1733-11.8806 4.1032-17.9598.9265-6.0578 1.3457-12.221 1.1116-18.761-1.3633-38.1021 2.2847-62.8085 4.8244-75.784 2.5398-12.9755 3.6951-14.8373 3.6195-14.6243l-14.0288-4.9807c-.0756.213-1.4637 2.8105-4.1845 16.753-2.7208 13.9424-6.4835 39.8505-5.082 79.1664.1976 5.5452-.1564 10.7759-.9544 15.9806-.8048 5.2496-2.0656 10.4993-3.6857 16.0391-1.8028 6.1647-4.042 12.6575-6.5284 19.7503-1.9867 5.6671-4.3808 12.413-6.785 19.5927-4.98 14.8713-10.8546 34.0514-16.1262 59.165-4.9666 23.6602-9.5694 53.3402-12.5406 91.4791-3.7434 48.1524-.2015 88.9967 9.6574 123.6946 9.6772 34.0585 25.2787 61.6238 45.2196 84.2116 19.8587 22.4946 43.6926 39.6828 69.3908 53.4259 26.0166 13.9133 54.052 24.3451 81.6435 33.0598 25.3165 7.9977 49.3583 10.9233 71.9992 11.0703 23.8591.1549 46.6836-2.7934 67.5462-6.4362 23.1297-4.0387 44.5209-8.9545 64.2372-12.8619a921.631 921.631 0 0 1 8.4108-1.6285c19.8952-3.7514 37.1888-6.2103 53.9712-7.1122 16.2735-.904 31.2766.2126 44.9293 1.6413 14.6986 1.5382 29.1783 3.6318 45.8657 5.0204 14.5773 1.213 32.4204 1.9959 53.2726.2279 10.3672-.8791 22.0939-2.4337 35.3004-5.1142 9.473-1.9228 19.9575-4.4747 31.5511-7.9006a6.064 6.022 6.225 0 0 3.5656-2.844c41.5159-74.2947 94.9956-169.4903 150.1245-267.5296 2.8471-.7177 8.3538-2.17 17.5991-4.6829 14.9627-4.0669 38.4666-10.5717 72.3742-20.1 20.4908-5.7604 35.1219-16.0133 44.763-28.1798 11.2329-14.1753 15.3946-30.4552 15.5058-45.4617.031-4.1506-.2447-8.2192-.7593-12.1634-1.8907-14.4905-7.0827-27.9443-13.4913-39.5321-10.3937-18.7939-25.3809-35.3175-42.4827-49.0901-17.0602-13.7372-37.1786-26.9635-59.7987-39.5577a584.0136 584.0136 0 0 0-7.544-4.127c-17.696-9.5138-35.3391-17.8726-51.6872-25.0081-25.7135-11.2233-48.2205-19.244-58.1915-22.7734.4546-7.6579.9366-23.291-.099-44.802-.7194-14.9394-2.3272-35.2344-5.9977-58.2391-4.496-28.1783-12.3878-62.3406-26.616-96.198-13.4005-31.8878-32.4461-63.5684-59.6355-89.8177-46.397-44.7014-87.9348-67.0987-121.3187-79.174-20.5507-7.4335-38.3432-11.04-51.4725-13.0173-12.784-1.9253-23.642-2.6346-28.8795-2.9557-6.8591-.4204-13.3088-.6585-14.4483-.6942a4.4166 4.4166 90 0 0-.2765 8.8288z" style="fill:#6f4028;fill-rule:nonzero;stroke:none;stroke-width:16;stroke-linecap:round;stroke-linejoin:round;stroke-miterlimit:45.6;stroke-dasharray:none;stroke-opacity:1" transform="translate(8.8552 -53.131)"/>
    <path d="M891.7357 106.724c-.0607.0326.4943-.4976 3.3043-1.4549 1.614-.5498 4.6529-1.4132 8.4316-1.9357 3.3658-.4654 7.3402-.6635 11.5133-.1201 4.1842.5449 8.237 1.7896 12.0787 3.9217.3066.1676.6025.336.888.5048 2.0094 1.188 3.6362 2.4809 4.9378 3.8461 1.395 1.4632 2.4102 3.0027 3.1374 4.5848.717 1.5599 1.1646 3.1852 1.4038 4.8397.2453 1.6968.2677 3.4.1456 5.0392-.2808 3.7724-1.275 6.955-1.9704 8.8752-.1747.4825-.3381.902-.4784 1.248-.8325 2.0536-1.0196 2.3444-.9734 2.2557l11.7893 6.15c.0463-.0888.5311-.7712 1.5898-3.6195a51.5507 51.5507 0 0 0 .6028-1.714c.7949-2.3936 2.1416-7.0035 2.3944-12.448.1124-2.4206.0141-5.0926-.4806-7.8728-.4856-2.7293-1.3481-5.5324-2.737-8.2757-1.4171-2.799-3.3195-5.4112-5.7495-7.7613-2.2491-2.1752-4.8559-4.0349-7.767-5.5985a41.0204 41.0204 0 0 0-1.2717-.6545c-5.5302-2.6949-11.2294-3.9046-16.7156-4.0988-5.429-.1922-10.3236.6191-14.2117 1.6163-4.3827 1.124-7.797 2.5696-9.6163 3.3545-3.2055 1.3831-4.166 1.8468-4.2267 1.8793zM1066.3104 184.688c-.093.11.2661-.2443 3.0329-3.0377.4708-.4753 1.0638-1.0758 1.7441-1.7397 2.5008-2.4402 7.3923-6.9464 14.6817-11.0679 6.3419-3.5857 14.6283-6.954 24.7512-8.2998 9.9318-1.3202 20.9492-.598 32.8059 2.9843.5794.175 1.1649.3581 1.7563.5496 12.0989 3.9164 21.9048 10.952 28.7638 20.3907 6.6122 9.0992 9.9327 19.6667 10.5526 30.0525.7286 12.2068-2.2735 22.9058-6.2374 31.0542-1.4893 3.0617-3.0806 5.7088-4.6041 7.9675-6.0507 8.9701-12.9149 14.219-16.6233 16.6703l8.3554 12.6403c4.6044-3.0436 13.5675-9.4872 20.9416-21.006 1.8509-2.8912 3.7078-6.2914 5.3682-10.1968 4.429-10.4175 7.1139-23.73 5.2545-38.332-1.5844-12.4423-6.3812-24.759-14.7599-35.1829-8.7112-10.8375-20.3971-18.5416-34.112-22.9973a122.6941 122.6941 0 0 0-1.9158-.6051c-12.9531-3.9746-25.1223-5.3396-36.5772-4.5779-11.667.776-21.5723 3.6961-29.4868 7.0585-9.0221 3.833-15.6464 8.3316-19.0787 10.9317-.9459.7165-1.7484 1.3638-2.4045 1.923-3.7967 3.2363-4.3481 4.3968-4.4409 4.507z" style="fill:#6f4028;fill-rule:nonzero;stroke:none;stroke-width:16;stroke-linecap:round;stroke-linejoin:round;stroke-miterlimit:45.6;stroke-dasharray:none;stroke-opacity:1" transform="translate(8.8552 -53.131)"/>
    <path d="M1146.7981 204.6224c.063-.064.1796-.2743-.187-.9302-.3067-.5486-1.1344-1.5854-2.9453-3.1082-2.331-1.9603-5.9137-4.3481-10.6517-6.1838-1.6764-.6495-3.3636-1.1795-5.0783-1.6169-3.4329-.8755-7.6533-1.609-12.7569-1.3336-4.4627.2409-8.8382 1.2187-13.0061 2.7694-4.054 1.5082-7.3257 3.3533-9.0237 4.5072-1.2392.8421-1.9762 1.5554-2.3241 1.8423l10.7452 13.027c.3042-.251.9111-.6472 1.8034-1.4298 1.1652-1.022 3.2322-3.0527 5.7229-5.0526 2.5639-2.0588 5.3357-3.9124 8.3707-5.325 3.479-1.6192 6.809-2.419 9.7423-2.5765 1.4557-.0782 2.9634-.019 4.495.1748 4.3609.5519 8.0207 2.0723 10.5593 3.3238 1.977.9747 3.0474 1.617 3.6093 1.827.6735.2516.8508.16.925.0852z" style="fill:#6f4028;fill-rule:nonzero;stroke:none;stroke-width:16;stroke-linecap:round;stroke-linejoin:round;stroke-miterlimit:45.6;stroke-dasharray:none;stroke-opacity:1" transform="translate(8.8552 -53.131)"/>
    <path d="M500.3177 383.7245c.1001.168 1.1965-.098 4.6106-1.0313 1.0977-.3 2.7779-.7557 4.6463-1.1902 2.4945-.5801 5.6476-1.2035 9.1493-1.536 3.3661-.3197 6.8872-.3534 10.3928.0965 3.6961.4743 7.0073 1.4394 9.9284 2.8335.0825.0394.165.0793.2476.1199 3.112 1.5265 6.05 3.7464 8.7 6.7756 2.8364 3.2425 5.1035 7.1312 6.9956 11.4777 1.6132 3.706 2.7345 7.2266 3.651 10.1007 1.1018 3.4554 2.0997 6.4666 2.4714 7.863a10.1388 10.1388 90 0 0 19.5952-5.2163c-.442-1.6604-1.2998-5.4126-3.0427-9.6662-1.4122-3.4465-3.6575-7.912-6.7925-12.3539-3.7613-5.3293-8.3094-9.94-13.6403-13.4173-4.9672-3.24-9.913-5.0447-14.5168-6.038a46.296 46.296 0 0 0-.365-.0771c-4.297-.891-8.6965-1.1113-13.1585-.7091-4.208.3792-8.1593 1.2845-11.6918 2.4232-3.698 1.192-6.8266 2.6014-9.2225 3.8495-1.8482.9627-3.2928 1.8466-4.3243 2.5321-3.381 2.2471-3.7287 3.0045-3.6337 3.1637z" style="fill:#6f4028;fill-rule:nonzero;stroke:none;stroke-width:16;stroke-linecap:round;stroke-linejoin:round;stroke-miterlimit:45.6;stroke-dasharray:none;stroke-opacity:1" transform="translate(8.8552 -57.131)"/>
    <path d="M290.6162 536.9668c-.8643.1666-2.4763.1404-5.0736.9133-2.4663.7339-7.7986 2.6147-13.8587 4.4765-6.354 1.952-12.5487 3.5949-19.1043 4.8732-7.7184 1.5051-13.9818 2.1367-20.1422 2.7856-5.7598.6066-10.338 1.1422-11.3428 2.2537-.8.885.1237 2.2446.177 3.212a35399.4218 35399.4218 0 0 0 .2333 4.2344c.0526.954-.7443 2.434.177 3.212 1.1386.9616 6.1067 1.0729 12.3825.1846 6.5306-.9244 13.7486-2.8015 21.484-5.8554 6.5552-2.588 12.8645-5.7711 18.6627-9.0354 5.6062-3.1561 10.5345-6.2864 12.5959-7.7575 2.2211-1.585 3.1604-2.9021 3.8092-3.497z" style="clip-rule:evenodd;fill:#93502f;fill-opacity:1;fill-rule:nonzero;stroke:none;stroke-width:25;stroke-linecap:round;stroke-linejoin:round;stroke-miterlimit:45.6;stroke-dasharray:none;stroke-opacity:1" transform="translate(1140.3134 153.5002)"/>
    <path d="M322.1395 374.5206c.313.1504.5349-.4253 3.3837-3.4869 1.675-1.8 6.0305-5.7803 11.3199-9.6842 4.2548-3.1404 9.1196-6.2375 14.4825-8.698 5.0904-2.3353 9.9706-3.8015 14.9678-4.698.3628-.0651.73-.1275 1.1018-.1868 6.1945-.991 12.356-1.0337 18.8069-.1168 6.3524.903 12.2719 2.6407 17.45 4.5337 6.0271 2.2033 11.686 4.8894 13.8763 5.9729 4.2958 2.1252 5.417 2.0038 5.8682 1.5641.328-.3197.7788-1.7847-2.3132-5.822-1.8343-2.3949-5.5468-6.9704-11.654-11.7974-4.8501-3.8334-11.3086-7.884-19.1188-10.5805-8.0026-2.763-16.88-3.9002-25.9526-2.4049a42.7127 42.7127 0 0 0-1.6942.3147c-7.7118 1.5944-14.495 5.2939-20.0772 10.0116-5.832 4.9287-10.019 10.6624-12.9008 15.6693-3.7591 6.5311-5.45 12.0767-6.3426 14.6134-1.414 4.0178-1.3907 4.706-1.2037 4.7958z" style="clip-rule:evenodd;fill:#6f4028;fill-rule:nonzero;stroke:none;stroke-width:10.5376;stroke-linecap:round;stroke-linejoin:round;stroke-miterlimit:45.6;stroke-dasharray:none;stroke-opacity:1" transform="matrix(1.135 -.0925 .0925 1.135 291.364 -66.9931)"/>
    <path d="M1177.2102 900.0538s-62.4103 69.0146-29.094 141.0225c32.0862 69.3494 127.7895 47.5862 163.1432 21.9155 45.1165-32.7595 76.3017-86.1867 64.3077-155.4059-13.0475-75.2992-60.6551-63.7487-60.6551-63.7487z" style="fill:#6f4028;fill-opacity:1;stroke:none;stroke-width:16;stroke-linecap:round;stroke-linejoin:round;stroke-miterlimit:45.6;stroke-dasharray:none;stroke-opacity:1"/>
    <path d="m699.5676 653.7762 73.7957 343.6005a42.262 42.262 32.291 0 0 51.0396 32.2547l534.9716-126.429a41.7204 41.7204 121.788 0 0 31.0347-50.0772l-73.9716-317.1903a39.9872 39.9872 32.702 0 0-46.893-30.1072L723.9534 616.518a31.309 31.309 123.205 0 0-24.3857 37.2583z" style="fill:#faf3f0;fill-opacity:1;stroke:none;stroke-width:16;stroke-linecap:round;stroke-linejoin:round;stroke-miterlimit:45.6;stroke-dasharray:none;stroke-opacity:1" transform="translate(8.8552 -53.131)"/>
    <path d="m714.3242 624.682-5.7398-51.1354 593.6301-120.9696 28.3514 46.4386z" style="fill:#ed6a2c;fill-opacity:1;stroke:none;stroke-width:16;stroke-linecap:round;stroke-linejoin:round;stroke-miterlimit:45.6;stroke-dasharray:none;stroke-opacity:1"/>
    <path d="m804.0732 608.507 14.6103 63.6592-87.14 18.2628-13.045-63.1374z" style="fill:#a3b1bb;fill-opacity:1;stroke:none;stroke-width:10;stroke-linecap:round;stroke-linejoin:round;stroke-miterlimit:45.6;stroke-dasharray:none;stroke-opacity:1"/>
    <path d="m1389.2531 767.1623 7.231 71.0385-235.4644 63.2767-17.4725-76.4201z" style="clip-rule:evenodd;display:inline;fill:#a3b1bb;fill-opacity:1;fill-rule:evenodd;stroke:none;stroke-width:10;stroke-linecap:round;stroke-linejoin:round;stroke-miterlimit:45.6;stroke-dasharray:none;stroke-opacity:1"/>
    <path d="m909.8699 656.0214 12.5448 70.1035 97.4071-21.4-16.2346-67.8898zM957.9202 868.8604l15.8656 72.433 89.6587-23.7295-15.8656-68.6277zM1109.1962 687.3292l15.8656 68.2586 89.6587-19.5551-15.8656-68.6277z" style="clip-rule:evenodd;display:inline;fill:#e4127a;fill-opacity:1;fill-rule:evenodd;stroke:none;stroke-width:10;stroke-linecap:round;stroke-linejoin:round;stroke-miterlimit:45.6;stroke-dasharray:none;stroke-opacity:1"/>
    <path d="m699.6478 653.7588 75.6062 347.6415a42.0814 42.0814 32.02 0 0 51.0797 31.9429l533.1075-129.8628a42.0081 42.0081 121.5912 0 0 30.968-50.3552l-73.9716-317.1903a39.9872 39.9872 32.702 0 0-46.893-30.1072L723.9534 616.518a31.228 31.228 123.1308 0 0-24.3056 37.241z" style="fill:none;fill-opacity:1;stroke:#6f4028;stroke-width:16;stroke-linecap:round;stroke-linejoin:round;stroke-miterlimit:45.6;stroke-dasharray:none;stroke-opacity:1" transform="translate(8.8552 -53.131)"/>
    <path d="m718.5318 626.3868 602.8903-123.9725" style="fill:none;fill-opacity:1;stroke:#6f4028;stroke-width:10;stroke-linecap:round;stroke-linejoin:round;stroke-miterlimit:45.6;stroke-dasharray:none;stroke-opacity:1"/>
    <path d="m881.6757 536.1934 90.1813 403.4383M1156.8077 483.7976l88.057 395.0895M795.076 559.3686l86.3126 406.3901M976.266 514.8445l89.1377 404.9141M1243.4259 470.7527l85.9699 384.564M1068.9188 498.993l88.6684 402.648" style="fill:none;fill-opacity:1;stroke:#6f4028;stroke-width:12;stroke-linecap:round;stroke-linejoin:round;stroke-miterlimit:45.6;stroke-dasharray:none;stroke-opacity:1"/>
    <path d="M773.7651 553.4078c-3.5011-13.5166 5.69-32.7528 21.1866-26.9755 19.785 7.376 26.0049 38.5125 6.6677 49.7388M862.0931 535.9398c-3.5012-13.5166 5.69-32.7528 21.1866-26.9755 19.785 7.376 26.0048 38.5125 6.6676 49.7388M959.4291 512.803c-3.5011-13.5166 5.69-32.7528 21.1866-26.9755 19.7849 7.376 26.0048 38.5125 6.6677 49.7388M1051.9283 496.956c-3.5012-13.5166 5.69-32.7528 21.1866-26.9755 19.7848 7.376 26.0048 38.5125 6.6676 49.7388M1138.2664 479.6147c-3.5012-13.5167 5.69-32.7529 21.1866-26.9756 19.7848 7.376 26.0048 38.5125 6.6676 49.7388M1224.0718 463.3802c-3.5012-13.5167 5.69-32.7529 21.1866-26.9756 19.7848 7.376 26.0048 38.5125 6.6676 49.7388" style="fill:none;fill-opacity:1;stroke:#6f4028;stroke-width:16;stroke-linecap:round;stroke-linejoin:round;stroke-miterlimit:45.6;stroke-dasharray:none;stroke-opacity:1"/>
    <path d="m732.0652 693.9072 611.5456-126.2747M828.0758 744.869l534.3197-111.6645M849.9913 814.8769l519.7094-113.7517M781.1141 906.8002l607.3713-139.8414" style="fill:none;fill-opacity:1;stroke:#6f4028;stroke-width:10;stroke-linecap:round;stroke-linejoin:round;stroke-miterlimit:45.6;stroke-dasharray:none;stroke-opacity:1"/>
    <path d="M689.2283 677.0524s140.945 46.1207 155.7036 75.638c14.7586 29.5173 28.7793 81.1725-34.6828 118.0691-63.4621 36.8966-99.6208 24.3518-99.6208 24.3518z" style="fill:#ad6742;fill-opacity:1;stroke:none;stroke-width:16;stroke-linecap:round;stroke-linejoin:round;stroke-miterlimit:45.6;stroke-dasharray:none;stroke-opacity:1"/>
    <path d="M640.7662 675.2048c-.2666.0438-.831.535-.761 2.9271.07 2.392.823 6.7853 3.8448 13.1082 1.0044 2.1017 2.335 4.5896 4.0901 7.3839 6.6096 10.5227 21.5862 29.1799 54.8667 46.992 14.7829 7.9111 30.1859 14.0495 45.7185 19.9343 15.084 5.7149 29.4156 10.8784 42.2522 16.913 12.9873 6.1056 23.6238 12.738 31.718 21.0161 4.1373 4.2315 7.5652 8.8499 10.2905 13.9837 2.8319 5.3346 4.9247 11.2587 6.2452 17.9367 1.3812 6.9817 1.7703 13.6452 1.2233 19.9983-.5268 6.1186-1.9229 11.9608-4.1467 17.5382-4.3184 10.8303-11.7759 20.6886-21.971 29.4549-10.0942 8.6796-22.55 16.0064-36.3582 21.9221-14.1626 6.0677-29.3643 10.489-44.3101 13.4225-15.6376 3.076-32.0995 3.0257-47.7564.8006-18.2182-2.5892-34.731-8.0025-48.5327-14.445-6.2646-2.9242-11.919-6.0321-16.98-9.1662-9.424-5.8358-17.6429-12.218-24.6765-18.9465-16.611-15.8905-24.3056-31.5505-27.8082-41.276 2.403 9.8141 7.7641 27.1265 23.344 45.4729 6.612 7.7859 14.6821 15.293 24.2578 22.0923 5.141 3.6504 10.9434 7.2783 17.4265 10.7147 14.269 7.5632 31.6189 14.061 51.049 17.515 16.6662 2.963 34.6313 3.6178 52.1187.6701 15.835-2.6635 32.1465-6.9854 47.5424-13.2217 14.9801-6.068 29.0139-13.9192 40.7209-23.7024 11.8603-9.9114 21.193-21.6935 26.7355-35.3458 2.8518-7.0247 4.6447-14.4113 5.317-22.1142.697-7.9892.177-16.1819-1.506-24.5216-1.6384-8.116-4.3007-15.5425-8.0046-22.317-3.5695-6.5287-8.0199-12.2951-13.2388-17.4323-10.1063-9.948-22.76-17.2147-36.679-23.319-13.6534-5.988-28.869-10.9899-43.76-16.1204-15.6158-5.3802-30.5796-10.8012-44.907-17.8306-31.9278-15.6643-47.1059-32.1416-54.0583-40.9307a101.3372 101.3372 0 0 1-4.5847-6.2717c-3.5981-5.3415-5.4909-8.8736-6.698-10.743-1.207-1.8693-1.7574-2.1363-2.024-2.0925z" style="fill:#6f4028;fill-rule:nonzero;stroke:none;stroke-width:16;stroke-linecap:round;stroke-linejoin:round;stroke-miterlimit:45.6;stroke-dasharray:none;stroke-opacity:1" transform="translate(8.8552 -53.131)"/>
    <path d="M200.5902 359.9511c.8167-.209 3.2433-1.2614 3.4772-3.6758a5.3241 5.3241 0 0 0 .0178-.7298c-.0754-1.8503-1.0369-4.5282-2.912-7.3308a25.2917 25.2917 0 0 0-2.1891-2.815c-1.3331-1.4861-3.2451-3.05-5.5695-4.3271-4.6972-2.581-8.9208-2.8978-11.7087-2.9835-.4504-.0138 0 0 0 0a2.5902 2.5902 90 0 0-.8444 5.111s-.3374-.1162 0 0c2.187.7541 4.7033 2.3788 6.9822 5.1411 1.1536 1.3983 1.968 2.7092 2.7588 3.849.4737.6827.9148 1.3614 1.3495 2.0498 1.266 2.005 2.2706 3.773 3.3291 4.7805a4.76 4.76 0 0 0 .4424.3749c1.51 1.1218 4.0313.7694 4.8667.5557z" style="clip-rule:evenodd;display:inline;fill:#c9835e;fill-opacity:1;fill-rule:nonzero;stroke:none;stroke-width:7.31571;stroke-linecap:round;stroke-linejoin:round;stroke-miterlimit:45.6;stroke-dasharray:none;stroke-opacity:1" transform="matrix(1.3362 -.288 .288 1.3362 509.5856 -370.4015)"/>
    <path d="M195.0798 352.9059c.479.1485 2.2972.401 3.4562-1.3263a3.477 3.477 0 0 0 .56-1.507c.1085-.871-.068-2.1677-.7658-3.608-.4553-.9398-1.1123-1.895-1.9999-2.7918-.8822-.8914-1.9302-1.6632-3.1268-2.3136-3.2696-1.7771-7.0055-2.3017-9.4558-2.636-.6533-.0893 0 0 0 0a2.5902 2.5902 90 0 0-.9037 5.1009s-.5549-.125 0 0c2.2404.5043 4.8853 1.5917 6.5355 3.1798.5625.5413.922 1.0533 1.1606 1.5033.2353.4437.3582.8381.4465 1.1462.1422.4957.2187.8364.4433 1.1245.1376.1763.3583.361.614.5462 1.095.7929 2.4094 1.3876 3.0359 1.5818z" style="clip-rule:evenodd;display:inline;fill:#c9835e;fill-opacity:1;fill-rule:nonzero;stroke:none;stroke-width:7.31571;stroke-linecap:round;stroke-linejoin:round;stroke-miterlimit:45.6;stroke-dasharray:none;stroke-opacity:1" transform="rotate(-12.1595 -1323.157 -2851.9784) scale(1.3669)"/>
    <path d="M202.044 358.5283c.4576-.3337 1.4092-1.1945 1.8958-2.7504.482-1.5412.4122-3.5817-.6299-5.441-1.6033-2.8606-5.5343-6.0952-11.2973-9.481-2.7687-1.6267-5.8451-3.2222-9.2223-4.835-5.4196-2.5881-12.5485-5.2191-21.126-7.3648-8.719-2.1812-16.3676-3.2294-21.4285-3.8494-.5683-.0696 0 0 0 0a4.2817 4.2817 90 0 0-1.3751 8.4523s-.534-.1097 0 0c4.7367.9732 11.8821 2.7504 19.6629 5.6317 7.7755 2.8793 13.6601 5.902 18.3644 8.5503 2.8745 1.6181 5.379 3.3143 7.5734 4.9392 4.6577 3.4489 7.375 6.1415 9.8229 7.2068 1.5292.6655 3.2918.6504 4.7509.2992 1.4816-.3566 2.5454-1.0202 3.0087-1.358z" style="clip-rule:evenodd;display:inline;fill:#ad6742;fill-opacity:1;fill-rule:nonzero;stroke:none;stroke-width:6.57137;stroke-linecap:round;stroke-linejoin:round;stroke-miterlimit:45.6;stroke-dasharray:none;stroke-opacity:1" transform="matrix(1.4876 -.3206 .3206 1.4876 -67.6712 -37.1996)"/>
    <path d="M207.7453 359.4224c.4313-.3298 1.2892-1.1562 1.8017-2.6072.4987-1.4121.571-3.2338-.123-4.6916a4.5039 4.5039 0 0 0-.063-.1272c-.5717-1.111-1.792-2.3886-3.1566-3.5543-1.6623-1.4198-3.5006-2.5887-4.2895-3.1836-.3062-.2309 0 0 0 0a5.5662 5.5662 90 0 0-7.0104 8.6478s-.201-.1801 0 0c.5669.5085 1.4592 1.6928 2.6468 3.1494.9282 1.1385 1.9067 2.2714 2.815 2.8488.0353.0224.0705.044.1057.0649 1.1987.7104 2.9144.8674 4.3484.6352 1.4895-.2412 2.485-.8457 2.9248-1.1821z" style="clip-rule:evenodd;display:inline;fill:#ad6742;fill-opacity:1;fill-rule:nonzero;stroke:none;stroke-width:6.57137;stroke-linecap:round;stroke-linejoin:round;stroke-miterlimit:45.6;stroke-dasharray:none;stroke-opacity:1" transform="matrix(1.4876 -.3206 .3206 1.4876 -40.9957 -20.1925)"/>
    <path d="m929.794 675.2076 36.3748-8.3334M1130.5115 699.5593l46.6742-10.5155M975.5458 881.0906l36.0664-8.9475" style="fill:none;fill-opacity:1;stroke:#faf3f0;stroke-width:10;stroke-linecap:round;stroke-linejoin:round;stroke-miterlimit:45.6;stroke-dasharray:none;stroke-opacity:1"/>
    <path d="M351.7207 517.4432c-1.7425-.3029-4.7064-1.158-10.0188-1.8865-6.3896-.8762-18.8003-2.2343-31.4176-4.2655-10.8442-1.7457-19.4141-3.4894-30.0158-5.71-8.7485-1.8324-17.5054-3.6867-26.8912-5.1023-9.8916-1.492-20.021-2.4296-31.6509-2.6857-11.2346-.232-21.2536.4898-29.664 1.5042-4.3875.5293-8.746 1.1882-13.0896 1.959-13.8301 2.454-27.1786 5.988-39.8626 9.674-22.3383 6.4917-42.5848 12.8917-56.2602 16.5318-11.9375 3.1775-19.7758 5.301-25.0055 6.4151 4.8401-.2421 13.9905-.4804 25.8657-2.2625 17.7381-2.6618 31.7267-6.0906 57.6436-12.0803 12.8343-2.966 25.8992-5.8416 39.3435-7.934 4.2062-.6546 8.3984-1.225 12.6048-1.7007 8.055-.9109 17.6-1.6406 28.2698-1.5519 11.2537.0788 20.9435.6854 30.5662 1.7163 9.1937.985 17.75 2.294 26.71 3.5788 10.4979 1.5054 19.8893 2.7222 30.7121 3.616 13.1424 1.0853 25.1727 1.3693 31.9884 1.1701 5.3528-.1564 8.4882-.8173 10.1721-.9859z" style="clip-rule:evenodd;fill:#93502f;fill-opacity:1;fill-rule:nonzero;stroke:none;stroke-width:25;stroke-linecap:round;stroke-linejoin:round;stroke-miterlimit:45.6;stroke-dasharray:none;stroke-opacity:1" transform="translate(732.975 498.8523)"/>
    <path d="M290.6162 540.6564c-.8643.1667-2.4538.1292-5.0596.8773-2.7657.794-7.8115 2.6087-13.594 4.3167-6.022 1.7788-12.0539 3.2259-18.7378 4.244-5.1722.7878-10.193 1.239-15.5389 1.5464-5.3175.3059-11.1487.4738-16.5879.6895-6.8146.3055-12.2858.407-17.0959.4033-2.449-.002-4.8523-.0313-7.2259-.0959-7.6238-.2075-14.5738-.7699-21.4909-1.8182-7.921-1.2006-15.0893-2.9365-21.8903-4.9393-3.6395-1.0718-6.9813-2.164-9.8956-3.1459-6.6795-2.2504-12.9603-4.1762-15.7342-5.2044 2.4529 1.6582 7.754 5.6157 14.0203 9.0834 2.7273 1.5094 5.9523 3.1843 9.4947 4.8377 6.571 3.067 13.973 5.9464 22.2094 8.0749 7.2386 1.8706 14.718 3.0627 22.7982 3.5873 2.5173.1634 5.0616.26 7.6364.2947 5.0198.068 10.8028-.089 17.7543-.5417 5.5135-.3888 11.31-.8701 16.9311-1.6192 5.5565-.7405 10.8941-1.732 16.2936-3.1653 6.9104-1.8342 13.2337-4.2179 19.0698-6.9233 5.6668-2.6269 10.4285-5.367 12.82-7.0276 2.247-1.5602 3.1954-2.8988 3.8232-3.4744z" style="clip-rule:evenodd;fill:#93502f;fill-opacity:1;fill-rule:nonzero;stroke:none;stroke-width:25;stroke-linecap:round;stroke-linejoin:round;stroke-miterlimit:45.6;stroke-dasharray:none;stroke-opacity:1" transform="translate(504.9541 315.8452)"/>
  </g>
</svg>
