<svg xmlns="http://www.w3.org/2000/svg" xml:space="preserve" style="clip-rule:evenodd;fill-rule:evenodd" viewBox="0 0 1600 1120">
  <g style="display:inline">
    <path d="M1181.3417 650.797s40.1493-139.7208 134.065-183.3842c109.0162-50.684 207.3401-21.5765 239.9013 89.6082 28.4802 97.2492-19.5475 214.009-101.5146 286.2513-90.3453 79.6264-193.2631 114.5542-265.5054 97.1882-72.2422-17.3659-6.9463-289.6635-6.9463-289.6635z" style="clip-rule:evenodd;display:inline;fill:#6f4028;fill-opacity:1;fill-rule:evenodd;stroke:none;stroke-width:16;stroke-linecap:round;stroke-linejoin:round;stroke-miterlimit:45.6;stroke-dasharray:none;stroke-opacity:1" transform="translate(11.8144 -72.363)"/>
    <path d="M165.0555 336.3868c.1983-.5373.4738-1.7803-.1425-3.4313-.6075-1.6272-2.0438-3.444-4.224-4.64-3.3383-1.8314-9.095-2.9914-16.1156-3.481-3.3686-.235-6.8864-.3052-10.5082-.247-3.415.0547-7.3824.3727-11.5909 1.0961-10.8186 1.8597-18.3595 5.5084-23.3251 8.4-.3778.22 0 0 0 0a4.2817 4.2817 90 0 0 3.8955 7.6261s-.344.1487 0 0c4.5202-1.954 11.3716-3.957 20.7404-4.3716 3.6896-.1633 7.0768-.0584 10.0686.1027 3.1454.1695 6.2111.5792 9.1285 1.075 6.1564 1.0465 10.9782 2.3495 14.4037 2.2943 2.1871-.0353 4.1848-.7985 5.5279-1.7751 1.3727-.9982 1.9394-2.0999 2.1417-2.6482z" style="clip-rule:evenodd;display:inline;fill:#ad6742;fill-opacity:1;fill-rule:nonzero;stroke:none;stroke-width:6.98095;stroke-linecap:round;stroke-linejoin:round;stroke-miterlimit:45.6;stroke-dasharray:none;stroke-opacity:1" transform="matrix(-1.4003 -.3018 -.3018 1.4003 1739.6296 -25.5746)"/>
    <path d="M189.2278 357.109c.3848.4064 1.2844 1.1407 2.7829 1.5567 1.436.3986 3.2276.424 4.5183-.1407a3.9128 3.9128 0 0 0 .1116-.0509c.9634-.4567 2.0116-1.4041 2.8376-2.2312.4146-.415.7745-.8038 1.032-1.0932.366-.4116.531-.6387.5933-.6963.0466-.043 0 0 0 0a5.5662 5.5662 90 0 0-5.3875-9.742s.3067-.1524 0 0c-.4106.204-1.0941.484-1.8957.8907a21.2859 21.2859 0 0 0-1.8463 1.0532c-1.2657.8102-2.5238 1.8208-3.1974 2.7898a4.5024 4.5024 0 0 0-.0757.1124c-.8538 1.3118-1.0654 3.1519-.81 4.647.2646 1.5485.9579 2.504 1.3369 2.9045z" style="clip-rule:evenodd;display:inline;fill:#ad6742;fill-opacity:1;fill-rule:nonzero;stroke:none;stroke-width:6.98095;stroke-linecap:round;stroke-linejoin:round;stroke-miterlimit:45.6;stroke-dasharray:none;stroke-opacity:1" transform="matrix(-1.4003 -.3018 -.3018 1.4003 1895.436 4.532)"/>
    <path d="M982.4617 1050.3163s-11.2744 30.4886 4.2912 52.6139c22.8106 32.4234 105.2248 41.1208 171.1916 14.8401 67.8417-27.0277 86.3908-75.2607 76.8507-101.7609-9.5401-26.5003-23.8502-31.8003-23.8502-31.8003z" style="clip-rule:evenodd;fill:#6f4028;fill-opacity:1;fill-rule:evenodd;stroke:none;stroke-width:10;stroke-linecap:round;stroke-linejoin:round;stroke-miterlimit:45.6;stroke-dasharray:none;stroke-opacity:1" transform="translate(11.8144 -72.363)"/>
    <path d="M620.6975 474.5762s1.4243-96.7355 25.4421-140.5942c24.0179-43.8587 34.8712-44.702 34.8712-44.702s-10.0778-45.1857 11.8515-68.1593c21.9293-22.9736 47.5135-26.3674 67.3543-20.1019 19.8409 6.2656 30.291 14.2766 30.291 14.2766l84.4502-19.2662s-33.4685-32.8307-20.9375-56.8485c12.531-24.0178 53.4995-23.9174 70.2075-16.2384 16.5708 7.6159 27.9971 32.29 27.9971 32.29s35.0382-14.743 49.6577 4.0535c14.6196 18.7965-4.3593 39.6445-4.3593 39.6445s56.1286 8.8762 96.8545 37.071c40.7259 28.1949 63.6995 69.965 63.6995 69.965s56.3897-12.531 77.2747 19.8408c20.8851 32.3719 34.4604 92.9386 12.5311 116.9564-21.9293 24.0179-39.3867 15.548-39.3867 15.548s10.8118 29.6608 6.6347 86.0505c-4.177 56.3897-5.8854 78.0132 24.398 157.3764 39.6529 103.9182 52.2126 192.1427-36.5489 289.2583-89.1827 97.5764-294.4795 52.2127-294.4795 52.2127l-143.0628-2.0885z" style="fill:#ad6742;fill-opacity:1;stroke:none;stroke-width:10;stroke-linecap:round;stroke-linejoin:round;stroke-miterlimit:45.6;stroke-dasharray:none;stroke-opacity:1" transform="translate(11.8144 -72.363)"/>
    <path d="m712.0785 446.2882 30.8307 29.8168-15.5153 31.9964-41.853-11.355-7.6856-36.295z" style="clip-rule:evenodd;display:inline;fill:#faf3f0;fill-opacity:1;fill-rule:evenodd;stroke:none;stroke-width:25;stroke-linecap:round;stroke-linejoin:round;stroke-miterlimit:45.6;stroke-dasharray:none" transform="translate(11.8144 -72.363)"/>
    <path d="M318.1137 366.6773c.4132.3812 1.5876.7357 5.2405-1.3482.8236-.4698 9.3403-5.5363 14.8936-8.4274 5.2974-2.7579 11.5011-5.6171 18.2924-7.8106 6.9073-2.2309 13.6013-3.5113 20.276-3.8319.114-.005.2283-.0107.3428-.0157 7.0384-.3032 13.8335.1959 20.6568 1.4498 6.6654 1.2248 12.6609 3.047 17.7028 4.8712 6.1319 2.2186 11.3875 4.6497 13.4258 5.6826 3.7234 1.8869 4.367 2.0517 4.6442 1.7617.1816-.1898.2337-1.1037-2.6007-4.3626-1.7564-2.0195-5.3547-6.1316-11.3103-10.6282-4.6366-3.5007-10.7523-7.2625-18.182-10.0957-7.5864-2.893-16.0269-4.6116-24.8536-4.3927-.1498.004-.2992.008-.4482.013-8.7111.2888-17.1777 2.6119-24.9498 6.2023-7.641 3.5298-14.0919 8.0384-19.0517 12.2258-6.9048 5.8294-10.7025 10.7093-12.539 13.38-2.3594 3.4312-1.8725 5.0196-1.5396 5.3266z" style="clip-rule:evenodd;display:inline;fill:#6f4028;fill-rule:nonzero;stroke:none;stroke-width:12.655;stroke-linecap:round;stroke-linejoin:round;stroke-miterlimit:45.6;stroke-dasharray:none;stroke-opacity:1" transform="matrix(-.9451 -.077 -.077 .9451 1312.0953 -72.6776)"/>
    <path d="M614.1546 345.9511c.1035.1028.363.1044 1.4022-.4681 1.0128-.558 2.7786-1.6783 5.035-2.9965 1.598-.9334 4.4377-2.325 7.9423-3.7625 4.3456-1.7823 9.2242-3.4377 14.5576-4.7144 7.7103-1.8456 14.7948-2.1286 16.5758-3.4521 1.4565-1.0825-.2344-3.2059-.3133-4.2849l-.1002-1.3703-.1002-1.3703c-.0754-1.0319 1.5383-3.4836-.3133-4.2848-2.629-1.1377-11.1012.4343-19.5426 4.736-5.581 2.8441-10.2862 6.3223-14.001 9.5778-3.0765 2.696-5.264 5.0537-6.6395 6.4412-1.9685 1.9855-3.266 3.5499-3.9473 4.559-.6781 1.0043-.648 1.2982-.5555 1.39z" style="clip-rule:evenodd;display:inline;fill:#6f4028;fill-rule:nonzero;stroke:none;stroke-width:12.655;stroke-linecap:round;stroke-linejoin:round;stroke-miterlimit:45.6;stroke-dasharray:none;stroke-opacity:1" transform="matrix(-.9378 -.1403 -.1403 .9378 1377.8797 -19.586)"/>
    <path d="M428.3402 538.2909c.8137-.1717 2.9756-.245 4.8821-1.0302 1.4485-.5966 3.2635-1.7048 5.2198-3.0433 1.7609 2.126 8.5143 9.3526 17.8372 15.9864l-2.903-.9046c5.6331 4.0291 11.903 7.7066 18.635 10.5246.7252.3036 1.4658.6011 2.2212.8908 7.4545 2.8587 16.5064 5.0131 26.5213 4.5298 9.2977-.4459 18.5486-2.6372 26.9387-6.3486 8.7218-3.8581 16.1705-9.2024 21.799-15.533 3.0883-3.4733 5.5576-7.161 7.4278-10.9675 2.1332-4.342 3.4125-8.6844 4.0393-12.8753.808-5.4026.492-10.2746-.1913-14.268-.3524-2.0604-.8005-3.8733-1.2281-5.363-1.3502-4.704-3.1574-8.3324-3.778-9.5831l-9.3066-3.1332-3.1331 9.3065c.501 1.0097 1.8442 3.8242 2.8888 7.308.33 1.1002.674 2.4146.9517 3.89.538 2.857.8145 6.2414.3445 9.9577-.3637 2.876-1.1694 5.9087-2.5993 9.013-1.2567 2.7286-2.981 5.4789-5.2487 8.165-4.1499 4.9157-9.938 9.3868-17.121 12.7889-6.904 3.2699-14.6426 5.3298-22.4939 5.9236-7.9981.6084-15.5017-.8758-22.0393-3.1304a70.2203 70.2203 0 0 1-1.9437-.7028c-5.9373-2.245-11.616-5.3139-16.8784-8.8045a2.1282.306 25.4873 0 0-2.903-.9046c-10.902-7.2923-18.2904-15.3882-18.2904-15.1136a.9026 2.3522 47.4167 0 0-2.9884 1.1826c-2.2878 2.7547-4.3448 5.4303-5.3221 7.432-.9046 1.8528-1.115 4.0056-1.338 4.8068z" style="clip-rule:evenodd;display:inline;fill:#6f4028;fill-rule:nonzero;stroke:none;stroke-width:12.655;stroke-linecap:round;stroke-linejoin:round;stroke-miterlimit:45.6;stroke-dasharray:none;stroke-opacity:1" transform="matrix(-.9451 -.077 -.077 .9451 1286.0439 -84.1348)"/>
    <path d="M548.93 527.5363c-.758.6523-3.3168 3.4905-2.103 6.4037.1975.4742.49.984.8884 1.5318 1.5185 2.0878 4.651 4.868 9.6092 7.5168 4.232 2.261 9.6612 4.2945 15.9846 5.1642 6.635.9126 13.4867.4448 20.4773-1.5146 4.9085-1.3405 9.2827-3.037 13.107-5.0796 3.6722-1.9615 6.7402-4.1907 9.2536-6.619 2.503-2.4183 4.3793-4.96 5.7512-7.4982 1.4124-2.613 2.2584-5.163 2.7315-7.4933 1.0897-5.367.251-9.6886-.4613-11.8984a15.238 15.238 0 0 0-.2204-.636c-1.3235-3.5564-3.0033-3.6003-3.3366-3.4845-.5726.1991-1.262.9859-1.6973 4.1518-.0245.1781-.049.3607-.0755.5572-.2567 1.9085-.682 5.4-2.2048 8.9662-.6687 1.566-1.5633 3.1963-2.7892 4.8161-1.186 1.5672-2.6953 3.1422-4.643 4.6569-1.9602 1.5245-4.3693 2.9915-7.3443 4.327-3.109 1.3958-6.7597 2.6135-11.0254 3.6032-5.44 1.1994-10.5255 1.0298-15.1973-.0481-4.4899-1.0359-8.2889-2.8353-11.381-4.5946-3.6223-2.061-6.1218-3.9206-7.926-4.7391-.4743-.2152-.9026-.365-1.305-.451-2.4489-.5237-5.313 1.6905-6.0927 2.3615z" style="clip-rule:evenodd;display:inline;fill:#6f4028;fill-rule:nonzero;stroke:none;stroke-width:12.655;stroke-linecap:round;stroke-linejoin:round;stroke-miterlimit:45.6;stroke-dasharray:none;stroke-opacity:1" transform="matrix(-.9451 -.077 -.077 .9451 1286.0439 -84.1348)"/>
    <path d="M512.6665 559.455c.0004.0299-.1153.3673.1028 2.7713.0345.38.083.8374.1462 1.369.207 1.7399.7066 5.3798 1.5343 9.3333.6732 3.2155 1.6738 7.183 3.1393 10.7462.6884 1.6737 1.5136 3.3438 2.51 4.8433.971 1.461 2.1788 2.8724 3.6846 3.9394.8746.6298 1.8386 1.0762 2.7755 1.4054.9478.333 1.9607.5781 2.9876.7617 2.069.3698 4.4223.5292 6.838.5572 2.514.0292 5.1962-.083 7.8724-.2847 2.835-.2138 5.686-.5296 8.4005-.8957l.1946-.0264c5.2599-.7158 10.8615-1.7392 15.6426-3.0106 2.2732-.6045 4.415-1.2802 6.214-2.0195.8927-.3668 1.7528-.7703 2.5268-1.2161.756-.4355 1.5472-.9777 2.2206-1.6613.5775-.5773 1.0908-1.235 1.5439-1.8973.4622-.6755.9029-1.4165 1.3218-2.191.8515-1.5746 1.671-3.3963 2.4407-5.2929 1.649-4.0635 3.1928-8.7838 4.3907-12.6974 1.667-5.4461 2.9726-10.3269 3.4591-12.3086.8908-3.6284.9046-4.2462.9072-4.259l-4.3546-6.5553-6.5553 4.3546c.003-.0128-.176.5125-.8666 4.0665-.3635 1.8708-1.2538 6.8476-2.3936 12.1425-.8432 3.9171-1.9018 8.3998-3.054 12.258-.5355 1.7937-1.0666 3.3687-1.5801 4.6555-.2512.6294-.4799 1.144-.6873 1.5669-.2011.4101-.3731.6999-.435.8274.0464.008-.1218.226-.4661.4872-.3523.2672-.8531.5738-1.4973.9018-1.3086.6663-3.0552 1.3447-5.1096 1.9887-4.301 1.3483-9.5559 2.4292-14.5745 3.0897l-.1845.0241c-2.5775.3344-5.2728.5819-7.9273.7017-2.5134.1134-4.9597.1106-7.1787-.0362-2.1609-.1431-4.025-.4183-5.464-.8157-.7049-.1947-1.2632-.407-1.6722-.618-.4068-.2097-.6191-.3974-.645-.4818-.3266-.3788-.7336-.9764-1.1689-1.922-.439-.9535-.8403-2.1172-1.195-3.467-.7645-2.9094-1.2015-6.2528-1.4442-9.2392-.2976-3.6632-.3078-6.829-.3097-8.4996-.0006-.491 0-.8886-.003-1.2383-.0156-2.1612-.0889-2.3659-.0885-2.336l-6.0884-5.9102z" style="clip-rule:evenodd;display:inline;fill:#6f4028;fill-rule:nonzero;stroke:none;stroke-width:12.655;stroke-linecap:round;stroke-linejoin:round;stroke-miterlimit:45.6;stroke-dasharray:none;stroke-opacity:1" transform="matrix(-.9451 -.077 -.077 .9451 1287.4387 -84.021)"/>
    <path d="M547.9378 535.0642c-.2226 2.3938-1.3384 9.484-1.3357 14.3626.003 5.0684.0943 12.2678 1.4589 15.5.7492 1.7747 2.535 2.9786 3.042 3.5744.6082-.492 2.5854-1.346 3.649-2.9522 1.9372-2.925 3.3547-9.9842 4.2921-14.9651.9023-4.7945 1.1131-11.9689 1.3357-14.3626l-5.6424-6.7996z" style="clip-rule:evenodd;display:inline;fill:#6f4028;fill-rule:nonzero;stroke:none;stroke-width:12.655;stroke-linecap:round;stroke-linejoin:round;stroke-miterlimit:45.6;stroke-dasharray:none;stroke-opacity:1" transform="matrix(-.9451 -.077 -.077 .9451 1286.9136 -79.7317)"/>
    <path d="M346.882 488.6653c-.0681.0307-.164.1903.026.9696.0856.351.2076.8917.4577 1.6278.4888 1.438 1.4545 3.5458 3.1637 5.6407.6033.7394 1.2683 1.4365 1.98 2.0558 1.3328 1.1598 3.094 2.287 5.125 3.1763 3.409 1.4926 6.4824 1.8515 8.4114 1.943.8972.0426 1.561-.0395 1.8487-.058-.299-.09-.878-.3093-1.7266-.5957-1.8929-.6389-4.373-1.7278-7.1268-3.7581-1.6336-1.2045-2.9007-2.3852-4.0777-3.462-.6985-.6391-1.1707-1.0636-1.8692-1.7026-1.8843-1.7272-3.1696-2.9919-4.3119-4.1159-.4926-.4848-.9393-.9235-1.145-1.1423-.5325-.5663-.6714-.6164-.7553-.5787z" style="clip-rule:evenodd;display:inline;fill:#6f4028;fill-rule:nonzero;stroke:none;stroke-width:3.16373;stroke-linecap:round;stroke-linejoin:round;stroke-miterlimit:45.6;stroke-dasharray:none;stroke-opacity:1" transform="matrix(.579 .751 .751 -.579 333.7901 324.328)"/>
    <path d="M345.0842 498.584c-.1018.029-.3291.3563.005 1.546l.0154.054c.2373.8182.6649 2.1215 1.7347 3.5745.593.8054 1.3396 1.591 2.2277 2.265.7474.5672 1.6482 1.1201 2.6794 1.62 2.0082.9734 4.17 1.573 5.8122 1.8044 1.2158.1713 2.2673.0254 2.7485.0153-.4177-.2252-1.2764-.8513-2.3052-1.3976-1.623-.8618-3.0336-1.5783-4.875-2.8319-.855-.5819-1.5578-1.1173-2.2028-1.6222-.8376-.6557-1.3868-1.072-2.1353-1.6778-1.1811-.9558-2.0702-1.7658-2.5798-2.341a92.5655 92.5655 0 0 0-.0335-.0379c-.6282-.7098-.9923-.9988-1.091-.9707z" style="clip-rule:evenodd;display:inline;fill:#6f4028;fill-rule:nonzero;stroke:none;stroke-width:3.16373;stroke-linecap:round;stroke-linejoin:round;stroke-miterlimit:45.6;stroke-dasharray:none;stroke-opacity:1" transform="matrix(.579 .751 .751 -.579 330.1033 338.4608)"/>
    <path d="M756.199 326.044c44.3274 7.2121 59.446 20.4378 63.2907 43.6534 2.2779 13.755-21.92 42.4904-50.211 48.0165-36.43 7.1159-67.066 11.0734-87.6404-20.708-16.3181-25.2069-16.4756-47.5043-.0109-60.042 11.8667-9.0363 39.418-16.6396 74.5716-10.92z" style="clip-rule:evenodd;display:inline;fill:#6f4028;fill-opacity:1;fill-rule:evenodd;stroke:none;stroke-width:12;stroke-linecap:round;stroke-linejoin:round;stroke-miterlimit:45.6;stroke-dasharray:none;stroke-opacity:1" transform="translate(11.8144 -72.363)"/>
    <path d="M546.9426 318.7752s.2745-.003 0 0c-3.631.0396-14.6247-.6666-21.7866.2375-7.1694.905-17.6723 4.3292-21.2068 5.195-.2667.0653 0 0 0 0a3.3033 3.3033 90 0 0 .7673 6.562s-.2745-.002 0 0c3.639.027 14.6485.9354 21.8333.1618 7.1773-.7728 17.7113-3.9965 21.2536-4.7958.2678-.0604 0 0 0 0a3.7053 3.7053 90 0 0-.8608-7.3605z" style="clip-rule:evenodd;display:inline;fill:#e3766f;fill-opacity:1;fill-rule:nonzero;stroke:none;stroke-width:13.8095;stroke-linecap:round;stroke-linejoin:round;stroke-miterlimit:45.6;stroke-opacity:1" transform="matrix(.5795 -.6475 .6475 .5795 381.3028 530.7855)"/>
    <path d="M546.7831 318.7974s.2738-.0144 0 0c-3.5696.1883-14.4144-.0668-21.4174 1.1294-7.0107 1.1975-17.1857 5.0475-20.6229 6.057-.263.0774 0 0 0 0a3.3033 3.3033 90 0 0 1.0518 6.5224s-.274.009 0 0c3.5802-.122 14.4497.3345 21.4815-.7324 7.024-1.0658 17.239-4.7169 20.6868-5.6602.2644-.0723 0 0 0 0a3.7053 3.7053 90 0 0-1.1798-7.3162z" style="clip-rule:evenodd;display:inline;fill:#e3766f;fill-opacity:1;fill-rule:nonzero;stroke:none;stroke-width:13.8095;stroke-linecap:round;stroke-linejoin:round;stroke-miterlimit:45.6;stroke-opacity:1" transform="matrix(.5795 -.6475 .6475 .5795 408.9677 529.4956)"/>
    <path d="M546.5994 318.8318s.2726-.028 0 0c-3.5346.3635-14.3157.6422-21.2077 2.181-6.8995 1.5405-16.8047 5.8853-20.1657 7.0624-.2586.0906 0 0 0 0a3.3033 3.3033 90 0 0 1.3793 6.461s-.273.023 0 0c3.5486-.298 14.3645-.3766 21.2917-1.7878 6.9195-1.4096 16.8746-5.5577 20.2496-6.6692.2602-.0857 0 0 0 0a3.7053 3.7053 90 0 0-1.5472-7.2474z" style="clip-rule:evenodd;display:inline;fill:#e3766f;fill-opacity:1;fill-rule:nonzero;stroke:none;stroke-width:13.8095;stroke-linecap:round;stroke-linejoin:round;stroke-miterlimit:45.6;stroke-opacity:1" transform="scale(.869) rotate(-48.1747 929.476 -257.581)"/>
    <path d="M290.4392 565.462c-.2989-.4988-.7075-2.1025-2.009-3.1294-2.4571-1.939-9.9778-4.5468-24.312-6.747-12.3575-1.8969-27.8585-3.072-45.9033-2.9276-4.449.0362-9.4031.315-14.334.7079-2.3678.1887-4.7467.4051-7.0767.6363-3.269.3244-6.7139.7115-10.3129 1.1536-12.6088 1.5488-26.9435 3.7537-41.1956 6.1157-23.119 3.8315-51.0512 8.9494-63.0092 11.19-11.5402 2.1622-20.3986 4.2876-24.2383 5.07 4.1878-.0854 12.7113-.008 24.7795-.864 16.8726-1.1971 35.7876-3.0677 63.736-5.9225 14.5313-1.4844 28.487-2.9088 41.152-4.035 3.5642-.3169 6.9427-.6027 10.147-.8564 2.2801-.1805 4.596-.3512 6.8875-.5004 4.8001-.3124 9.4664-.5283 13.546-.549 17.9645-.096 32.1156.7203 44.5412 1.7125 14.3368 1.1447 21.271 1.9776 24.5447 1.0448 1.5823-.4508 2.5812-1.756 3.0571-2.0996z" style="clip-rule:evenodd;display:inline;fill:#93502f;fill-opacity:1;fill-rule:nonzero;stroke:none;stroke-width:25;stroke-linecap:round;stroke-linejoin:round;stroke-miterlimit:45.6;stroke-dasharray:none;stroke-opacity:1" transform="matrix(-1 0 0 1 1084.5603 373.6439)"/>
    <path d="M316.9511 366.285c.227.1356.6663.2206 1.6464-.29 1.0092-.5258 2.3819-1.559 4.3634-3.2143 2.1683-1.8113 7.0987-5.6606 12.428-9.1821 4.7951-3.1686 10.1444-6.2435 15.7937-8.5167 2.749-1.1061 5.4006-1.9557 7.9978-2.579a50.438 50.438 0 0 1 6.654-1.1344 49.9604 49.9604 0 0 1 1.051-.0968c6.0105-.472 12.1785-.137 18.954 1.2275 6.6193 1.333 12.876 3.4656 18.4026 5.708 6.4157 2.6033 12.4937 5.6484 14.8159 6.8894 4.566 2.4398 5.6453 2.4676 6.1124 2.034.3457-.321.7006-1.7182-2.4056-6.1604-1.8552-2.653-5.5098-7.75-11.6149-13.388-4.84-4.4697-11.3005-9.3342-19.1633-12.9655-8.0729-3.7282-17.1558-5.9218-26.5664-5.3678a39.8446 39.8446 0 0 0-1.8962.1563c-3.8652.4122-7.6132 1.3867-11.174 2.8092-3.9783 1.5894-7.6268 3.6983-10.9162 6.0997-6.6544 4.8578-11.7242 10.8185-15.331 16.0705-4.3261 6.2995-6.7164 11.7925-8.006 14.8442-1.0484 2.4809-1.509 4.2887-1.5875 5.424-.0783 1.1342.2234 1.5015.442 1.632z" style="clip-rule:evenodd;display:inline;fill:#6f4028;fill-rule:nonzero;stroke:none;stroke-width:12.655;stroke-linecap:round;stroke-linejoin:round;stroke-miterlimit:45.6;stroke-dasharray:none;stroke-opacity:1" transform="matrix(-.9451 -.077 -.077 .9451 1292.4036 -4.8542)"/>
    <path d="M346.882 488.6653c-.0681.0307-.164.1903.026.9696.0856.351.2076.8917.4577 1.6278.4888 1.438 1.4545 3.5458 3.1637 5.6407.6033.7394 1.2683 1.4365 1.98 2.0558 1.3328 1.1598 3.094 2.287 5.125 3.1763 3.409 1.4926 6.4824 1.8515 8.4114 1.943.8972.0426 1.561-.0395 1.8487-.058-.299-.09-.878-.3093-1.7266-.5957-1.8929-.6389-4.373-1.7278-7.1268-3.7581-1.6336-1.2045-2.9007-2.3852-4.0777-3.462-.6985-.6391-1.1707-1.0636-1.8692-1.7026-1.8843-1.7272-3.1696-2.9919-4.3119-4.1159-.4926-.4848-.9393-.9235-1.145-1.1423-.5325-.5663-.6714-.6164-.7553-.5787z" style="clip-rule:evenodd;display:inline;fill:#6f4028;fill-rule:nonzero;stroke:none;stroke-width:3.16373;stroke-linecap:round;stroke-linejoin:round;stroke-miterlimit:45.6;stroke-dasharray:none;stroke-opacity:1" transform="matrix(.579 .751 .751 -.579 93.781 270.899)"/>
    <path d="M322.1395 374.5206c.2566.1417.659-.002 2.4407-1.4995.746-.6267 3.7277-2.8017 6.9057-4.7606 2.7484-1.694 5.5513-3.1781 8.599-4.4163 4.3216-1.7558 8.0038-2.3543 9.0963-3.5444.6783-.7389.472-2.022-.011-3.2519-.483-1.23-1.2568-2.38-1.372-2.892-.1153-.512.1319-1.885.1645-3.2168.0323-1.3188-.1798-2.644-1.5476-2.9272-2.417-.5003-7.9239 1.6222-12.8114 5.9462-3.2202 2.849-5.7044 6.1481-7.4982 9.237-2.3332 4.018-3.1941 7.1165-3.6335 8.4042-.7833 2.296-.5246 2.8153-.3325 2.9213z" style="clip-rule:evenodd;display:inline;fill:#6f4028;fill-rule:nonzero;stroke:none;stroke-width:12.655;stroke-linecap:round;stroke-linejoin:round;stroke-miterlimit:45.6;stroke-dasharray:none;stroke-opacity:1" transform="matrix(-.9451 -.077 -.077 .9451 1035.3676 -72.1392)"/>
    <path d="M639.2855 519.0296c-1.6954-5.31-5.7352-19.029-8.508-38.865a295.0299 295.0299 0 0 1-1.0116-8.0376c-1.4684-13.1208-2.558-30.9476-1.195-51.3663 1.0512-15.7486 3.5604-32.8179 8.3332-49.375 4.284-14.8614 10.3053-28.9846 18.3939-40.918 8.164-12.0211 18.17-25.7453 30.6032-39.6552 12.5957-14.0918 27.3494-28.0014 44.8454-40.5753 18.6528-13.4053 39.5217-24.6422 62.9216-33.1234 14.6284-5.302 29.8091-9.3683 45.4863-12.262 12.4218-2.293 25.5567-3.9263 39.4486-4.797a4.9993 5.0077 58.3063 0 0 2.212-9.3183c-9.378-5.4405-16.1691-12.262-20.479-19.268-4.4214-7.1873-6.1763-14.4512-5.7269-20.7875.2295-3.2353 1.0304-6.2388 2.3416-8.9414 1.334-2.7494 3.219-5.2364 5.6578-7.39 2.4954-2.2036 5.6118-4.0943 9.3922-5.552 3.8818-1.4966 8.4557-2.5332 13.7464-2.9784 6.6653-.5552 12.4184-.4186 17.4004.1838 2.4648.298 4.816.7226 7.0558 1.272 6.5958 1.6179 11.9557 4.2518 16.3696 7.599 4.668 3.5397 8.1509 7.7839 10.8198 12.0948 3.6785 5.9413 5.7946 12.0363 6.8551 15.4418l11.732-3.6536c-1.1674-3.7488-3.6114-11.0096-8.0648-18.2696-3.2699-5.3307-7.7097-10.8395-13.8465-15.4954-5.8341-4.4263-12.778-7.7603-20.9642-9.716-2.761-.6597-5.6093-1.1496-8.5378-1.4786-5.925-.6656-12.5342-.6984-19.9283.0485-6.2706.6255-11.9644 1.995-17.0024 4.0793-4.9185 2.0349-9.185 4.741-12.7034 8.0505-3.4462 3.2415-6.1181 7.0099-7.9649 11.1631-1.8108 4.0725-2.7998 8.4512-2.9885 12.9687-.3683 8.8196 2.3128 18.1072 7.7695 26.7275 3.1984 5.0529 7.3694 9.9072 12.4862 14.3271-9.2905.9184-18.251 2.1698-26.8953 3.7234-16.2004 2.9116-31.948 6.999-47.1937 12.353-24.3998 8.5686-46.295 19.9522-66.0198 33.6103-18.4983 12.8088-34.1772 26.985-47.644 41.3314-13.2836 14.1512-24.0446 28.0745-32.814 40.0966-9.6022 13.1866-16.7122 28.6192-21.824 44.5065-5.7007 17.717-8.8985 35.9136-10.4674 52.5876-2.036 21.637-1.3447 40.6278-.0235 54.6484.292 3.0998.6163 5.9754.9515 8.6083 2.7217 21.3777 7.3236 36.1073 9.2274 42.0703a9.3182 9.3182 90 0 0 17.7535-5.6683z" style="fill:#6f4028;fill-rule:nonzero;stroke:none;stroke-width:16;stroke-linecap:round;stroke-linejoin:round;stroke-miterlimit:45.6;stroke-dasharray:none;stroke-opacity:1" transform="translate(11.8144 -72.363)"/>
    <path d="M690.4551 280.742c.0507.1349-.152-.4124-1.2578-4.3147a86.8775 86.8775 0 0 1-.65-2.4169c-.8645-3.4203-2.2436-9.8233-2.1465-17.4744.0842-6.6334 1.2755-14.225 4.892-21.6504 1.7966-3.6884 4.1685-7.2903 7.2465-10.7083 3.242-3.6002 7.1973-6.9182 11.9317-9.8864.6694-.4195 1.332-.82 1.9877-1.2025 8.773-5.1177 17.5218-7.76 26.0761-8.4873 8.9263-.759 17.0282.6213 23.7518 2.6725 7.6676 2.3391 13.5733 5.5675 16.6694 7.417a69.5194 69.5194 0 0 1 2.2518 1.403c3.3826 2.2006 3.7702 2.784 3.7048 2.728l7.0131-8.1862c-.0654-.056-.841-.7958-4.6858-3.4753a82.6571 82.6571 0 0 0-2.5431-1.703c-3.4646-2.229-10.0836-6.14-18.872-9.1228-7.7042-2.6147-17.2953-4.5952-28.122-4.016-10.4439.5585-21.1159 3.45-31.7307 9.2102-.789.4282-1.5851.876-2.388 1.3446-5.769 3.3672-10.845 7.252-15.2047 11.6575-4.146 4.1899-7.4994 8.705-10.1596 13.4362-5.3617 9.5362-7.5488 19.3102-8.2647 27.6926-.818 9.5767.2603 17.735 1.0114 22.0279.21 1.2003.4208 2.245.612 3.1108 1.1203 5.0709 1.8313 6.1891 1.882 6.324zM934.3154 200.2727c.2198-1.0549.846-2.687 1.5573-6.042.7536-3.5542 2.0135-10.1297 5.2837-17.1133 2.57-5.4886 6.2247-10.896 11.2835-15.3375 4.1028-3.602 8.9133-6.3622 14.1557-7.8623 4.7428-1.3572 9.673-1.628 14.357-.6441 6.8129 1.3601 12.204 3.9156 16.0883 7.1315 3.8529 3.19 6.1321 6.9443 7.0395 10.769.9368 3.9482.4636 8.155-1.4571 12.333-2.1129 4.596-5.936 9.0704-11.3787 13.083a5.5639 5.4544 29.3362 0 0 2.8726 9.8663c3.1379.325 6.2059.699 9.2271 1.1268 11.3429 1.6061 24.4228 4.2447 38.8454 9.0373 17.6271 5.8576 36.5212 14.6849 56.7248 28.0582 8.6223 5.726 16.1632 12.64 22.4859 19.4534 7.0281 7.5735 12.7007 15.1847 16.8459 21.2655 6.7843 9.9522 10.9726 18.023 11.9945 20.0023 1.9579 3.792 1.9696 3.8737 1.9468 3.8251l13.4588-6.3172c-.023-.0487-.036-.3658-2.2727-4.4776-1.1409-2.0973-5.8973-10.8156-13.2563-21.2634-4.5202-6.4174-10.753-14.542-18.5052-22.656-6.9663-7.2914-15.4387-14.8688-25.2877-21.192-21.3786-13.7501-41.5017-22.7574-60.3413-28.561-15.4026-4.745-29.3162-7.1503-41.2447-8.4275-3.1796-.3404-6.3957-.6235-9.6725-.8527l2.8726 9.8662c6.4185-5.0567 11.3939-11.0566 14.1468-17.7638 2.5388-6.1855 3.0582-12.709 1.2732-18.8955-1.7187-5.9568-5.4654-11.2101-10.819-15.2658-5.3643-4.064-12.2266-6.8482-20.153-8.1342-6.1583-.9624-12.3408-.2317-17.9984 1.7423-6.2587 2.1837-11.7318 5.8236-16.1733 10.2658-5.4703 5.471-9.1064 11.8566-11.3804 18.0302-2.8852 7.8328-3.4453 14.9323-3.3985 18.6725.0422 3.3743.727 5.4178.8794 6.2775z" style="fill:#6f4028;fill-rule:nonzero;stroke:none;stroke-width:16;stroke-linecap:round;stroke-linejoin:round;stroke-miterlimit:45.6;stroke-dasharray:none;stroke-opacity:1" transform="translate(11.8144 -72.363)"/>
    <path d="M1117.8798 345.293c-.064.1039.6445-1.6166 5.2047-7.209 3.2122-3.9393 8.4689-9.7045 15.5106-15.0024 6.9356-5.2179 15.0505-9.5666 24.1411-11.7097a54.5105 54.5105 0 0 1 3.2506-.663c3.5823-.6174 7.4287-.8999 11.5207-.7044 5.0813.2427 10.5918 1.2247 16.5041 3.2634 11.6961 4.0244 21.6063 9.883 29.6621 17.1275 7.8692 7.0767 13.8191 15.3393 17.9858 24.2274 7.2015 15.3616 8.8538 32.019 6.7641 47.5255-.4695 3.4841-1.1636 7.0185-2.0987 10.5767-2.3801 9.0564-7.4904 17.295-14.6427 24.3597-7.4688 7.3771-16.6613 12.9856-26.1047 16.8694-11.5318 4.7428-22.3905 6.5394-31.2077 7.1532-1.396.0972-2.7342.165-4.0136.2126-6.3881.2378-11.8812.1865-17.0327-.2962-5.0175-.47-8.9777-1.3009-11.3897-2.1088 1.8294 1.6627 4.8707 4.626 9.4685 7.5442 4.6512 2.9521 10.6531 5.6951 17.9175 7.082 1.4712.2809 3.0261.5199 4.661.7068 10.3322 1.1812 23.4843.2097 37.4979-4.742 11.4428-4.0433 22.9408-10.5975 32.4942-19.8082 9.1992-8.8692 16.2067-19.8478 19.5198-32.4625a106.214 106.214 0 0 0 2.5221-12.7082c2.5426-18.7493-.335-38.9637-10.1326-57.1171-5.6641-10.4948-13.4422-19.9081-23.2145-27.6913-9.9944-7.96-21.7641-13.9736-35.0055-17.9003-7.0781-2.1028-13.7108-3.0034-19.8483-3.0659-4.9342-.0502-9.545.4412-13.8108 1.2824a68.5225 68.5225 0 0 0-3.8585.8776c-10.7471 2.7722-20.0732 7.936-27.8521 13.8034-7.8814 5.9449-13.7742 12.3142-17.3763 16.6025-5.1561 6.138-6.206 8.1606-6.2702 8.2645a5.4284 5.4284 90 0 0 9.2338 5.7102z" style="fill:#6f4028;fill-rule:nonzero;stroke:none;stroke-width:16;stroke-linecap:round;stroke-linejoin:round;stroke-miterlimit:45.6;stroke-dasharray:none;stroke-opacity:1" transform="translate(11.8144 -72.363)"/>
    <path d="M1133.7698 401.25c-.036.166.037.1117.2024-.3897.1578-.4775.5184-1.7162.8836-3.12.2714-1.0434.6387-2.3934 1.1442-3.9568 1.3582-4.2006 3.607-9.5983 7.3483-14.7407.45-.6185.9278-1.2402 1.4351-1.8607 2.2243-2.7204 4.9962-5.396 8.4688-7.7019 3.5971-2.3886 7.8029-4.287 12.7544-5.5316 1.9806-.4978 4.0279-.8779 6.1416-1.1491 3.6799-.4723 7.8352-.6927 12.6134-.4337 10.1246.5487 19.6405 3.1116 25.7844 5.2039-5.4613-3.202-14.3271-8.244-24.5144-11.6624-4.874-1.6355-9.4885-2.71-13.8004-3.2454-2.4847-.3085-5.004-.469-7.5423-.4594-6.3667.0239-12.4701 1.1153-18.2191 3.2394-5.5737 2.0593-10.3752 4.926-14.4579 8.1108a59.3605 59.3605 0 0 0-2.6444 2.1896c-6.9321 6.084-11.6525 13.1164-14.593 18.5539-1.1124 2.057-1.9719 3.8897-2.5961 5.3586-.8594 2.0225-1.3936 3.8401-1.6496 4.921-.256 1.0808-.2607 1.4476-.2828 1.549a12.0378 12.0378 90 0 0 23.5238 5.1251zM1205.2505 461.4993c-1.0216.4237-4.1187 2.1397-3.7445 8.3193.2453 4.0489 1.4074 8.7365 3.3671 19.8563 2.3305 13.224 5.9149 36.788 3.9589 65.5163-.853 12.534-.5006 23.9748.8501 35.0923 1.3573 11.1706 3.6884 21.7226 6.5618 32.2648 2.9947 10.9874 6.7753 22.617 10.4222 33.848 4.6099 14.197 8.5103 26.2626 12.6494 40.5165 5.3145 18.3128 10.4848 40.1209 14.1254 63.5129 4.0743 26.1782 6.1709 53.8994 4.7479 81.3513-1.4229 27.45-6.4585 56.468-17.9733 83.808-3.6706 8.7153-8.0685 17.4238-13.3402 25.9507-9.612 15.5473-22.5419 31.1594-40.1251 45.1757-12.2594 9.7718-26.0258 17.638-41.1765 23.8194-14.8346 6.0525-30.7339 10.3828-47.3947 13.3514-34.3509 6.1206-70.9758 6.2605-104.864 4.5023-35.528-1.8432-82.4775-7.0636-103.2065-9.0125-7.3448-.6905-13.768-1.2498-19.6857-1.7079-9.609-.7438-18.1004-1.2435-25.8513-1.5137-19.9008-.6939-31.7275.2787-38.9058 1.1282a8.6812 8.6812 90 0 0 2.0405 17.2422c6.2683-.7419 17.2077-1.5812 36.264-.9318 7.4757.2547 15.7053.7141 25.1636 1.3897 5.8386.417 12.1341.9121 19.448 1.5276 20.5486 1.7293 67.6657 6.3823 104.0124 7.7935 34.44 1.3371 72.3587.7481 108.2292-6.1033 17.4428-3.3317 34.2693-8.1121 50.0961-14.7742 16.1801-6.8107 31.0046-15.4579 44.2729-26.2109 18.7726-15.2146 32.5728-32.0826 42.8627-48.774 5.6384-9.1463 10.3507-18.4483 14.2951-27.713 12.3524-29.0132 17.9829-59.5629 19.8823-88.1141 1.9026-28.5989.2045-57.3646-3.6202-84.4351-3.4159-24.177-8.4999-46.7487-13.9225-65.6931-4.268-14.9213-7.8372-26.374-12.3641-41.0441-3.5098-11.374-6.9483-22.637-9.6368-33.2226-2.5572-10.069-4.5194-19.8105-5.6218-29.9394-1.0935-10.048-1.3334-20.3992-.5373-31.869 2.1532-31.0815-2.0714-56.0161-5.6278-70.1746-2.7488-10.9435-5.5163-17.3618-7.3618-20.3534-3.5803-5.8039-7.315-4.784-8.2897-4.3797z" style="fill:#6f4028;fill-rule:nonzero;stroke:none;stroke-width:16;stroke-linecap:round;stroke-linejoin:round;stroke-miterlimit:45.6;stroke-dasharray:none;stroke-opacity:1" transform="translate(11.8144 -72.363)"/>
    <path d="M200.5902 359.9511c.8167-.209 3.2433-1.2614 3.4772-3.6758a5.3241 5.3241 0 0 0 .0178-.7298c-.0754-1.8503-1.0369-4.5282-2.912-7.3308a25.2917 25.2917 0 0 0-2.1891-2.815c-1.3331-1.4861-3.2451-3.05-5.5695-4.3271-4.6972-2.581-8.9208-2.8978-11.7087-2.9835-.4504-.0138 0 0 0 0a2.5902 2.5902 90 0 0-.8444 5.111s-.3374-.1162 0 0c2.187.7541 4.7033 2.3788 6.9822 5.1411 1.1536 1.3983 1.968 2.7092 2.7588 3.849.4737.6827.9148 1.3614 1.3495 2.0498 1.266 2.005 2.2706 3.773 3.3291 4.7805a4.76 4.76 0 0 0 .4424.3749c1.51 1.1218 4.0313.7694 4.8667.5557z" style="clip-rule:evenodd;display:inline;fill:#c9835e;fill-opacity:1;fill-rule:nonzero;stroke:none;stroke-width:7.31571;stroke-linecap:round;stroke-linejoin:round;stroke-miterlimit:45.6;stroke-dasharray:none;stroke-opacity:1" transform="matrix(1.3362 -.288 .288 1.3362 570.4514 -339.0432)"/>
    <path d="M190.676 351.5622c.3757-.23 1.1616-.8829 1.6152-2.1848.4388-1.2592.4783-2.9837-.2621-4.4033-.1577-.3024-.3662-.6165-.6179-.9381-.9305-1.1894-2.4434-2.474-4.0222-3.4829-.8348-.5334-1.6412-.9616-2.3985-1.2986-1.1107-.4942-1.8732-.6919-2.4494-.8744-.3138-.0994 0 0 0 0a2.5902 2.5902 90 0 0-2.5148 4.529s-.0918-.1257 0 0c.151.2071.3836.6727.7143 1.3724.2353.4978.5185 1.1138.8355 1.789.5882 1.2532 1.3337 2.8065 2.0503 3.8094.201.2815.4057.5298.6165.736.9615.9404 2.5092 1.4546 3.7932 1.5152 1.3433.0634 2.2546-.333 2.6399-.5689z" style="clip-rule:evenodd;display:inline;fill:#c9835e;fill-opacity:1;fill-rule:nonzero;stroke:none;stroke-width:7.31571;stroke-linecap:round;stroke-linejoin:round;stroke-miterlimit:45.6;stroke-dasharray:none;stroke-opacity:1" transform="matrix(1.3362 -.288 .288 1.3362 647.288 -312.2377)"/>
  </g>
  <g style="display:inline" transform="translate(-11.8144 38.3967)">
    <path d="M291.1175 921.4716c-.6863 38.923-29.5156 63.8415-67.291 63.8415-12.939 0-32.1794-6.4336-48.6476-15.6734-21.1413-11.8617-31.5836-32.2966-32.3039-61.8285-.833-34.1618 27.9083-54.3864 50.2064-59.5633 11.3962-2.6459 25.245-1.9949 28.1606-1.3247 45.794 10.5269 70.6139 32.6658 69.8755 74.5484z" style="clip-rule:evenodd;display:inline;fill:#6f4028;fill-opacity:1;fill-rule:evenodd;stroke:#6f4028;stroke-width:16;stroke-linecap:round;stroke-linejoin:round;stroke-miterlimit:45.6"/>
    <path d="M680.5356 916.0733c-.6863 38.923-29.5156 63.8415-67.291 63.8415-12.939 0-32.1794-6.4336-48.6476-15.6734-21.1413-11.8617-31.5836-32.2966-32.3038-61.8285-.8332-34.1618 27.9082-54.3864 50.2064-59.5633 11.3961-2.6459 25.2448-1.9949 28.1605-1.3246 45.794 10.5268 70.6139 32.6657 69.8755 74.5483z" style="fill:#6f4028;fill-opacity:1;stroke:#6f4028;stroke-width:16;stroke-linecap:round;stroke-linejoin:round;stroke-miterlimit:45.6"/>
    <path d="m49.4727 502.4192 2.2152 52.4263L240.718 620.563l622.4702 2.9536 47.7707-61.936-675.4097-4.5199z" style="fill:#7d888f;fill-opacity:1;stroke:none;stroke-width:10;stroke-linecap:round;stroke-linejoin:round;stroke-miterlimit:45.6;stroke-dasharray:none;stroke-opacity:1"/>
    <path d="m83.525 567.4225 84.5845 343.648L286.11 955.4512l508.407-20.6383L886.817 620.255l-644.6222.308z" style="clip-rule:evenodd;fill:#895d3a;fill-opacity:1;fill-rule:evenodd;stroke:none;stroke-width:10;stroke-linecap:round;stroke-linejoin:round;stroke-miterlimit:45.6;stroke-dasharray:none;stroke-opacity:1"/>
    <path d="m70.4718 503.8115 164.992 55.3455H906.919l-215.1162-55.3455Z" style="clip-rule:evenodd;display:inline;fill:#607079;fill-opacity:1;fill-rule:evenodd;stroke:none;stroke-width:16;stroke-linecap:round;stroke-linejoin:round;stroke-miterlimit:45.6;stroke-opacity:1"/>
    <path d="m153.587 845.897 14.768 67.5023 107.0678 39.1352 520.5711-26.5824 19.1984-56.1183-546.4151 11.8144z" style="fill:#7d888f;fill-opacity:1;stroke:none;stroke-width:10;stroke-linecap:round;stroke-linejoin:round;stroke-miterlimit:45.6;stroke-dasharray:none;stroke-opacity:1"/>
    <path d="m49.1035 503.6808 5.1688 51.688 26.5824 12.5527 85.8694 340.155 107.591 43.7196 521.6788-22.8904 91.4565-312.102 24.2233-60.3886-209.899-51.2575z" style="fill:none;stroke:#6f4028;stroke-width:16;stroke-linecap:round;stroke-linejoin:round;stroke-miterlimit:45.6;stroke-dasharray:none;stroke-opacity:1"/>
    <path d="m688.6699 559.157-107.5581 64.7437-340.4267-4.177-8.354-61.788Z" style="clip-rule:evenodd;display:inline;fill:#a3b1bb;fill-opacity:1;fill-rule:evenodd;stroke:none;stroke-width:16;stroke-linecap:round;stroke-linejoin:round;stroke-miterlimit:45.6;stroke-opacity:1"/>
    <path d="M472.8017 456.298s16.708-62.133 30.8055-68.3986c14.0974-6.2655 190.0541 27.6727 197.3639 42.2923 7.3098 14.6195-28.717 129.4874-28.717 129.4874L506.74 558.635z" style="clip-rule:evenodd;fill:#e4127a;fill-opacity:1;fill-rule:evenodd;stroke:none;stroke-width:10;stroke-linecap:round;stroke-linejoin:round;stroke-miterlimit:45.6;stroke-dasharray:none;stroke-opacity:1"/>
    <path d="m307.2627 481.0668-29.536 30.2744 25.844 45.7807 50.211 2.5844z" style="clip-rule:evenodd;fill:#ad6742;fill-opacity:1;fill-rule:evenodd;stroke:none;stroke-width:16;stroke-linecap:round;stroke-linejoin:round;stroke-miterlimit:45.6;stroke-opacity:1"/>
    <path d="m76.7373 563.0685 166.0363 60.0446h644.8266M240.7736 620.5024l-9.9204-60.133M227.2116 618.6558l51.1648 333.8787" style="fill:none;stroke:#6f4028;stroke-width:10;stroke-linecap:round;stroke-linejoin:round;stroke-miterlimit:45.6;stroke-dasharray:none;stroke-opacity:1"/>
    <path d="m702.5375 455.5148-28.1949 104.9475 109.3856-.7832-12.531-87.4562Z" style="fill:#505ca6;fill-opacity:1;stroke:none;stroke-width:3;stroke-linecap:round;stroke-linejoin:round;stroke-miterlimit:45.6;stroke-dasharray:none;stroke-opacity:1"/>
    <path d="M784.8275 553.3666s-7.6352-71.745-13.5424-79.8673c-5.9072-8.1224-69.0162-16.9493-69.0162-16.9493" style="fill:none;stroke:#6f4028;stroke-width:16;stroke-linecap:round;stroke-linejoin:round;stroke-miterlimit:45.6;stroke-dasharray:none;stroke-opacity:1"/>
    <path d="m662.4325 417.1953-35.4432 141.0342 45.0424-.3692 33.9663-123.3126z" style="fill:#faf3f0;fill-opacity:1;stroke:none;stroke-width:16;stroke-linecap:round;stroke-linejoin:round;stroke-miterlimit:45.6;stroke-opacity:1"/>
    <path d="M673.941 555.5447s33.5338-111.0286 28.365-122.843c-5.1688-11.8144-167.4071-53.989-196.414-45.0423-20.9657 6.4664-25.4486 60.7867-25.4486 60.7867" style="fill:none;stroke:#6f4028;stroke-width:16;stroke-linecap:round;stroke-linejoin:round;stroke-miterlimit:45.6;stroke-dasharray:none;stroke-opacity:1"/>
    <path d="m173.1009 355.0054-85.1067 54.8233 71.0093 136.7972 100.2483-20.363 50.1242-55.3453 72.0535-55.8676-57.434-105.9918-85.1066 31.8498z" style="fill:#7d888f;fill-opacity:1;stroke:none;stroke-width:16;stroke-linecap:round;stroke-linejoin:round;stroke-miterlimit:45.6;stroke-opacity:1"/>
    <path d="m239.4995 339.4301-65.2659 13.5753 60.0446 130.0096 30.2834-82.496z" style="clip-rule:evenodd;display:inline;fill:#a3b1bb;fill-opacity:1;fill-rule:evenodd;stroke:none;stroke-width:16;stroke-linecap:round;stroke-linejoin:round;stroke-miterlimit:45.6;stroke-opacity:1"/>
    <path d="m334.668 332.554-39.6817 125.3104-53.257-113.8237 82.496-26.1063Z" style="clip-rule:evenodd;display:inline;fill:#a3b1bb;fill-opacity:1;fill-rule:evenodd;stroke:none;stroke-width:10;stroke-linecap:round;stroke-linejoin:round;stroke-miterlimit:45.6;stroke-dasharray:none;stroke-opacity:1"/>
    <path d="m253.7844 524.2632-77.9567-167.6166" style="clip-rule:evenodd;display:inline;fill:none;fill-opacity:1;fill-rule:evenodd;stroke:#6f4028;stroke-width:10;stroke-linecap:round;stroke-linejoin:round;stroke-miterlimit:45.6;stroke-dasharray:none;stroke-opacity:1"/>
    <path d="m50.7194 502.4133 179.9657 56.4782" style="fill:none;stroke:#6f4028;stroke-width:10;stroke-linecap:round;stroke-linejoin:round;stroke-miterlimit:45.6;stroke-dasharray:none;stroke-opacity:1"/>
    <path d="M144.357 523.1556s9.9684 22.8903 18.8291 24.3671c8.8608 1.4768 42.458-7.384 42.458-7.384z" style="fill:#7d888f;fill-opacity:1;stroke:none;stroke-width:10;stroke-linecap:round;stroke-linejoin:round;stroke-miterlimit:45.6;stroke-dasharray:none;stroke-opacity:1"/>
    <path d="m301.3555 554.5375-22.8904-42.0887s-19.1984 10.3376-24.3672 13.2912c-33.3127 7.6961-84.557 22.5034-97.6532 15.1371-13.0962-7.3662-72.1785-116.2978-65.533-134.0193 6.6457-17.7216 77.532-50.2112 77.532-50.2112s46.5191-19.9367 56.8567-19.1983c10.3376.7384 16.2447 6.6456 16.2447 6.6456s72.148-28.7048 82.4855-27.9664c10.3376.7384 52.1183 85.3463 52.8567 97.899.7384 12.5528-74.7934 60.0255-74.7934 60.0255l45.311 81.5822" style="fill:none;stroke:#6f4028;stroke-width:16;stroke-linecap:round;stroke-linejoin:round;stroke-miterlimit:45.6;stroke-dasharray:none;stroke-opacity:1"/>
    <path d="m337.537 557.8603-10.3376-120.7282 143.6186-9.9684 38.766 131.435Z" style="clip-rule:evenodd;display:inline;fill:#ed6a2c;fill-opacity:1;fill-rule:evenodd;stroke:none;stroke-width:16;stroke-linecap:round;stroke-linejoin:round;stroke-miterlimit:45.6;stroke-opacity:1"/>
    <path d="M505.9815 553.9335s-27.7904-118.7632-35.9128-125.4088c-8.1224-6.6456-132.014-4.472-142.7209 12.8804-7.3568 11.9231 9.2027 113.446 9.2027 113.446" style="fill:none;stroke:#6f4028;stroke-width:16;stroke-linecap:round;stroke-linejoin:round;stroke-miterlimit:45.6;stroke-dasharray:none;stroke-opacity:1"/>
    <path d="M436.3572 980.1268c-.6862 38.923-29.5155 63.8415-67.291 63.8415-12.939 0-32.1793-6.4336-48.6476-15.6734-21.1412-11.8617-31.5836-32.2966-32.3038-61.8285-.8331-34.1618 27.9083-54.3864 50.2064-59.5633 11.3962-2.6459 25.2449-1.9949 28.1606-1.3246 45.794 10.5268 70.6138 32.6657 69.8754 74.5483z" style="fill:#6f4028;fill-opacity:1;stroke:#6f4028;stroke-width:16;stroke-linecap:round;stroke-linejoin:round;stroke-miterlimit:45.6"/>
    <ellipse cx="378.7205" cy="979.5424" rx="35.133" ry="38.3668" style="fill:#6f4028;fill-opacity:1;stroke:#ad6742;stroke-width:16;stroke-linecap:round;stroke-linejoin:round;stroke-miterlimit:45.6;stroke-dasharray:none;stroke-opacity:1"/>
    <path d="m279.0926 509.555 25.5842-25.0622-63.6994-141.4963" style="fill:none;stroke:#6f4028;stroke-width:16;stroke-linecap:round;stroke-linejoin:round;stroke-miterlimit:45.6;stroke-opacity:1"/>
    <path d="M640.1843 409.2663s15.4437 3.1299 19.5388 11.005c6.7876 13.0531-31.8498 135.753-31.8498 135.753" style="fill:none;fill-opacity:1;stroke:#6f4028;stroke-width:16;stroke-linecap:round;stroke-linejoin:round;stroke-miterlimit:45.6;stroke-opacity:1"/>
    <path d="M678.0929 424.5793s-13.6604 78.2703-33.9664 130.6966M688.1224 429.0097s-13.6603 78.2703-33.9663 130.6966" style="fill:none;fill-opacity:1;stroke:#6f4028;stroke-width:3;stroke-linecap:round;stroke-linejoin:round;stroke-miterlimit:45.6;stroke-dasharray:none;stroke-opacity:1"/>
    <path d="m522.8751 433.8093 79.747 16.2448M369.6574 468.8832l69.7786-4.4304M380.1795 486.4202l54.6415-3.3228" style="fill:none;fill-opacity:1;stroke:#faf3f0;stroke-width:12;stroke-linecap:round;stroke-linejoin:round;stroke-miterlimit:45.6;stroke-dasharray:none;stroke-opacity:1"/>
    <path d="M832.1294 962.3745c-.6863 38.923-29.5156 63.8415-67.291 63.8415-12.939 0-32.1794-6.4336-48.6476-15.6734-21.1413-11.8617-31.5836-32.2966-32.3039-61.8285-.833-34.1618 27.9083-54.3864 50.2064-59.5633 11.3962-2.6459 25.245-1.9949 28.1606-1.3247 45.794 10.5269 70.6139 32.6658 69.8755 74.5484z" style="fill:#6f4028;fill-opacity:1;stroke:#6f4028;stroke-width:16;stroke-linecap:round;stroke-linejoin:round;stroke-miterlimit:45.6"/>
    <ellipse cx="774.4927" cy="961.79" rx="35.133" ry="38.3668" style="fill:#6f4028;fill-opacity:1;stroke:#ad6742;stroke-width:16;stroke-linecap:round;stroke-linejoin:round;stroke-miterlimit:45.6;stroke-dasharray:none;stroke-opacity:1"/>
    <path d="m152.8486 840.5426 118.1438 43.6584 536.816-16.2448M229.642 558.968l651.2285 2.0436" style="fill:none;fill-opacity:1;stroke:#6f4028;stroke-width:10;stroke-linecap:round;stroke-linejoin:round;stroke-miterlimit:45.6;stroke-dasharray:none;stroke-opacity:1"/>
  </g>
  <g style="clip-rule:evenodd;display:inline;fill-rule:evenodd">
    <path d="M1002.8176 605.151s-145.383 48.2093-155.1816 69.8947c-13.5888 30.0738-28.7793 81.1725 34.6828 118.069 63.4622 36.8967 99.6208 24.3518 99.6208 24.3518z" style="clip-rule:evenodd;display:inline;fill:#ad6742;fill-opacity:1;fill-rule:evenodd;stroke:none;stroke-width:16;stroke-linecap:round;stroke-linejoin:round;stroke-miterlimit:45.6;stroke-dasharray:none;stroke-opacity:1" transform="translate(11.8144 -72.363)"/>
    <path d="M640.7662 695.2048c-.262.0655-.8137.473-.6996 2.2747.114 1.8017.9508 5.0673 4.0377 9.8676 1.0268 1.5967 2.3776 3.4962 4.15 5.6657 6.7005 8.202 21.5943 22.9568 54.5525 40.6032 14.861 7.951 30.3968 13.649 45.9993 18.7788 15.2168 5.0032 29.5076 9.1662 42.4048 14.2486 6.404 2.5237 12.2588 5.198 17.5368 8.201 5.3483 3.043 10.0038 6.3673 13.9849 10.1126 4.0671 3.8264 7.4335 8.0953 10.1141 12.9602 2.7886 5.0609 4.8672 10.8208 6.1845 17.4827 1.3871 7.0113 1.8018 13.632 1.305 19.8782-.4784 6.0135-1.802 11.6887-3.9237 17.0525-2.0712 5.2365-4.9131 10.201-8.497 14.9006-3.5363 4.6368-7.7824 8.9987-12.683 13.0803-9.812 8.1723-22.0003 15.015-35.6442 20.5772-13.9849 5.7013-29.1166 9.9033-44.1198 12.8472-16.0628 3.1543-34.4446 4.6466-52.627 4.4757-21.256-.1997-40.8742-2.625-57.6531-6.489-7.5714-1.7436-14.3924-3.7368-20.512-5.8697-11.3908-3.9702-21.2186-8.6626-29.533-14.0122-7.8262-5.0355-13.9594-10.4265-18.7673-15.933-6.9758-7.9893-10.6758-15.6917-12.6614-21.205 1.3738 5.611 4.0044 13.9847 10.1288 23.1397 4.2442 6.3443 9.9876 12.8045 17.7199 18.9709 8.2112 6.5484 18.2084 12.3966 29.964 17.2762 6.3116 2.62 13.367 5.077 21.2066 7.2617 17.3655 4.8393 37.7131 8.0833 59.8035 8.971 18.8638.7582 38.1748-.2601 55.3732-3.1545 15.7645-2.6508 31.9322-6.717 47.1076-12.547 14.7705-5.6746 28.5734-13.0112 40.06-22.2974 5.762-4.6582 10.9276-9.7965 15.3325-15.442 4.473-5.733 8.1246-11.9423 10.819-18.6278 2.7635-6.8572 4.474-14.1013 5.0869-21.6937.6354-7.872.0809-15.988-1.5962-24.2978-1.6415-8.1316-4.317-15.481-8.0653-22.0836-3.6144-6.3668-8.1258-11.8628-13.4153-16.6433-5.1462-4.651-10.9375-8.5435-17.199-11.9072-6.163-3.3108-12.7796-6.1083-19.6762-8.6143-13.5584-4.9266-28.8836-8.9417-43.6074-13.2848-15.502-4.5727-30.4208-9.5186-44.6261-16.4861-32.2246-15.8168-47.5368-28.8499-54.3725-35.3195-1.8614-1.7617-3.358-3.2967-4.5249-4.5403-3.533-3.7655-5.342-5.9636-6.505-7.0717-1.163-1.1081-1.7006-1.172-1.9626-1.1064z" style="clip-rule:evenodd;display:inline;fill:#6f4028;fill-rule:nonzero;stroke:none;stroke-width:16;stroke-linecap:round;stroke-linejoin:round;stroke-miterlimit:45.6;stroke-dasharray:none;stroke-opacity:1" transform="matrix(-1 0 0 1 1695.5272 -203.139)"/>
    <path d="M294.6162 534.6564c-.9401.1517-2.6423.08-5.5145.8302-3.1024.8105-8.6189 2.6583-15.0694 4.6684-6.609 2.0594-13.4085 4.04-20.5468 5.6795-11.653 2.6763-21.536 3.8222-32.5092 4.5039-6.0426.4042-11.314.7885-15.7633 1.095-2.3144.1596-4.6086.315-6.8962.4557-7.389.4544-14.2185.722-21.2065.5616-8.0299-.1843-15.188-.9175-22.156-2.087-3.7117-.6231-7.0688-1.3202-10.0376-1.9885-7.0712-1.5919-12.723-2.8227-15.8593-3.7377 2.598 1.5133 7.9201 4.9358 14.5494 7.7711 2.8566 1.2218 6.1975 2.5161 9.9097 3.7377 6.9318 2.281 14.5048 4.0993 22.9165 5.1683 7.3267.931 14.6822 1.2204 22.3173 1.0523 2.3758-.0523 4.752-.1483 7.123-.2792 4.727-.261 9.7432-.6744 15.9269-1.2295 11.3953-1.069 22.1261-3.1863 33.9176-7.1724 7.1403-2.4138 14.0972-5.3223 20.3634-8.2368 6.1442-2.8578 11.499-5.6702 14.1562-7.3196 2.5346-1.5732 3.6317-2.8825 4.3788-3.473z" style="clip-rule:evenodd;display:inline;fill:#93502f;fill-opacity:1;fill-rule:nonzero;stroke:none;stroke-width:25;stroke-linecap:round;stroke-linejoin:round;stroke-miterlimit:45.6;stroke-dasharray:none;stroke-opacity:1" transform="matrix(-1 0 0 1 1199.4282 163.8374)"/>
  </g>
</svg>
